%YAML 1.1
%TAG !u! tag:unity3d.com,2011:
--- !u!1001 &100100000
Prefab:
  m_ObjectHideFlags: 1
  serializedVersion: 2
  m_Modification:
    m_TransformParent: {fileID: 0}
    m_Modifications: []
    m_RemovedComponents: []
  m_ParentPrefab: {fileID: 0}
  m_RootGameObject: {fileID: 1134424092749314}
  m_IsPrefabParent: 1
--- !u!1 &1134424092749314
GameObject:
  m_ObjectHideFlags: 0
  m_PrefabParentObject: {fileID: 0}
  m_PrefabInternal: {fileID: 100100000}
  serializedVersion: 5
  m_Component:
  - component: {fileID: 4920812247765988}
  - component: {fileID: 114196077918514920}
  - component: {fileID: 114060409930468108}
  - component: {fileID: 64154447421631652}
  - component: {fileID: 114395153950985290}
  - component: {fileID: 136903273138412722}
  - component: {fileID: 114957330390473142}
  m_Layer: 11
  m_Name: EnemyBluePanckeCorrect
  m_TagString: EnemyBlue
  m_Icon: {fileID: 0}
  m_NavMeshLayer: 0
  m_StaticEditorFlags: 0
  m_IsActive: 1
--- !u!1 &1156016535665914
GameObject:
  m_ObjectHideFlags: 0
  m_PrefabParentObject: {fileID: 0}
  m_PrefabInternal: {fileID: 100100000}
  serializedVersion: 5
  m_Component:
  - component: {fileID: 4203001084414720}
  - component: {fileID: 114886192959359884}
  - component: {fileID: 23976972633620286}
  - component: {fileID: 33773676627277304}
  - component: {fileID: 114958885200271428}
  m_Layer: 11
  m_Name: EnemyPurplePancakeStill (2)
  m_TagString: Untagged
  m_Icon: {fileID: 0}
  m_NavMeshLayer: 0
  m_StaticEditorFlags: 0
  m_IsActive: 1
--- !u!4 &4203001084414720
Transform:
  m_ObjectHideFlags: 1
  m_PrefabParentObject: {fileID: 0}
  m_PrefabInternal: {fileID: 100100000}
  m_GameObject: {fileID: 1156016535665914}
  m_LocalRotation: {x: 0, y: 1, z: 0, w: 0}
  m_LocalPosition: {x: 0.05500002, y: 0.07999992, z: 0}
  m_LocalScale: {x: 1, y: 1, z: 1}
  m_Children: []
  m_Father: {fileID: 4920812247765988}
  m_RootOrder: 0
  m_LocalEulerAnglesHint: {x: 0, y: 180, z: 0}
--- !u!4 &4920812247765988
Transform:
  m_ObjectHideFlags: 1
  m_PrefabParentObject: {fileID: 0}
  m_PrefabInternal: {fileID: 100100000}
  m_GameObject: {fileID: 1134424092749314}
  m_LocalRotation: {x: 0, y: 0, z: 0, w: 1}
  m_LocalPosition: {x: -0.48, y: 1.04, z: 0}
  m_LocalScale: {x: 0.5, y: 0.5, z: 0.5}
  m_Children:
  - {fileID: 4203001084414720}
  m_Father: {fileID: 0}
  m_RootOrder: 0
  m_LocalEulerAnglesHint: {x: 0, y: 0, z: 0}
--- !u!23 &23976972633620286
MeshRenderer:
  m_ObjectHideFlags: 1
  m_PrefabParentObject: {fileID: 0}
  m_PrefabInternal: {fileID: 100100000}
  m_GameObject: {fileID: 1156016535665914}
  m_Enabled: 1
  m_CastShadows: 2
  m_ReceiveShadows: 1
  m_MotionVectors: 1
  m_LightProbeUsage: 1
  m_ReflectionProbeUsage: 1
  m_Materials:
  - {fileID: 2100000, guid: f46e719ec89386449a8bbfb748df1858, type: 2}
  m_StaticBatchInfo:
    firstSubMesh: 0
    subMeshCount: 0
  m_StaticBatchRoot: {fileID: 0}
  m_ProbeAnchor: {fileID: 0}
  m_LightProbeVolumeOverride: {fileID: 0}
  m_ScaleInLightmap: 1
  m_PreserveUVs: 0
  m_IgnoreNormalsForChartDetection: 0
  m_ImportantGI: 0
  m_SelectedEditorRenderState: 2
  m_MinimumChartSize: 4
  m_AutoUVMaxDistance: 0.5
  m_AutoUVMaxAngle: 89
  m_LightmapParameters: {fileID: 0}
  m_SortingLayerID: 0
  m_SortingOrder: 0
--- !u!33 &33773676627277304
MeshFilter:
  m_ObjectHideFlags: 1
  m_PrefabParentObject: {fileID: 0}
  m_PrefabInternal: {fileID: 100100000}
  m_GameObject: {fileID: 1156016535665914}
  m_Mesh: {fileID: 0}
--- !u!64 &64154447421631652
MeshCollider:
  m_ObjectHideFlags: 1
  m_PrefabParentObject: {fileID: 0}
  m_PrefabInternal: {fileID: 100100000}
  m_GameObject: {fileID: 1134424092749314}
  m_Material: {fileID: 0}
  m_IsTrigger: 0
  m_Enabled: 0
  serializedVersion: 2
  m_Convex: 0
  m_InflateMesh: 0
  m_SkinWidth: 0.01
  m_Mesh: {fileID: 0}
--- !u!114 &114060409930468108
MonoBehaviour:
  m_ObjectHideFlags: 1
  m_PrefabParentObject: {fileID: 0}
  m_PrefabInternal: {fileID: 100100000}
  m_GameObject: {fileID: 1134424092749314}
  m_Enabled: 1
  m_EditorHideFlags: 0
  m_Script: {fileID: 11500000, guid: a74fe6ab4f0cbb542b782db81a448257, type: 3}
  m_Name: 
  m_EditorClassIdentifier: 
  bullet: {fileID: 1205017887829454, guid: 676dd60e27d18214ba8888a240b4c6bc, type: 2}
  doOnceInXTime: 90
--- !u!114 &114196077918514920
MonoBehaviour:
  m_ObjectHideFlags: 1
  m_PrefabParentObject: {fileID: 0}
  m_PrefabInternal: {fileID: 100100000}
  m_GameObject: {fileID: 1134424092749314}
  m_Enabled: 1
  m_EditorHideFlags: 0
  m_Script: {fileID: 11500000, guid: 73f384b07892e6f40b6f2fe9311c2efd, type: 3}
  m_Name: 
  m_EditorClassIdentifier: 
  tagToLookAt: PickupRed
  rotSpeed: 120
  doOnceInXTime: 100
--- !u!114 &114395153950985290
MonoBehaviour:
  m_ObjectHideFlags: 1
  m_PrefabParentObject: {fileID: 0}
  m_PrefabInternal: {fileID: 100100000}
  m_GameObject: {fileID: 1134424092749314}
  m_Enabled: 1
  m_EditorHideFlags: 0
  m_Script: {fileID: 11500000, guid: 8a52c76934ca63c4481c86c7b4b32f39, type: 3}
  m_Name: 
  m_EditorClassIdentifier: 
  startingHealth: 1000
  currentHealth: 0
  sinkSpeed: 2.5
  scoreValue: 10
  deathClip: {fileID: 0}
--- !u!114 &114886192959359884
MonoBehaviour:
  m_ObjectHideFlags: 1
  m_PrefabParentObject: {fileID: 0}
  m_PrefabInternal: {fileID: 100100000}
  m_GameObject: {fileID: 1156016535665914}
  m_Enabled: 1
  m_EditorHideFlags: 0
  m_Script: {fileID: 16342205, guid: 0472bdc8d6d15384d98f22ee34302f9c, type: 3}
  m_Name: 
  m_EditorClassIdentifier: 
  _entityType: 0
--- !u!114 &114957330390473142
MonoBehaviour:
  m_ObjectHideFlags: 1
  m_PrefabParentObject: {fileID: 0}
  m_PrefabInternal: {fileID: 100100000}
  m_GameObject: {fileID: 1134424092749314}
  m_Enabled: 1
  m_EditorHideFlags: 0
  m_Script: {fileID: 11500000, guid: dd26c91bedb2773449ff8d53de0805f0, type: 3}
  m_Name: 
  m_EditorClassIdentifier: 
  MoveSpeed: 0.03
--- !u!114 &114958885200271428
MonoBehaviour:
  m_ObjectHideFlags: 1
  m_PrefabParentObject: {fileID: 0}
  m_PrefabInternal: {fileID: 100100000}
  m_GameObject: {fileID: 1156016535665914}
  m_Enabled: 1
  m_EditorHideFlags: 0
  m_Script: {fileID: 185759285, guid: 0472bdc8d6d15384d98f22ee34302f9c, type: 3}
  m_Name: 
  m_EditorClassIdentifier: 
  _quads:
  - _indices: 000000000100000002000000
    _distinctIndices: 000000000100000002000000
    _edges:
    - x: 0
      y: 1
    - x: 1
      y: 2
    - x: 2
      y: 0
    _smoothingGroup: 0
    _uv:
      useWorldSpace: 0
      flipU: 0
      flipV: 0
      swapUV: 0
      fill: 1
      scale: {x: 1, y: 1}
      offset: {x: 0, y: 0}
      rotation: 0
      justify: 0
      localPivot: {x: 0, y: 0}
      localSize: {x: 0, y: 0}
      anchor: 6
    _mat: {fileID: 2100000, guid: 55296d1b6ee54e14e8eb4648d4b448ee, type: 2}
    manualUV: 1
    elementGroup: -1
    textureGroup: -1
  - _indices: 030000000400000005000000
    _distinctIndices: 030000000400000005000000
    _edges:
    - x: 3
      y: 4
    - x: 4
      y: 5
    - x: 5
      y: 3
    _smoothingGroup: 0
    _uv:
      useWorldSpace: 0
      flipU: 0
      flipV: 0
      swapUV: 0
      fill: 1
      scale: {x: 1, y: 1}
      offset: {x: 0, y: 0}
      rotation: 0
      justify: 0
      localPivot: {x: 0, y: 0}
      localSize: {x: 0, y: 0}
      anchor: 6
    _mat: {fileID: 2100000, guid: 55296d1b6ee54e14e8eb4648d4b448ee, type: 2}
    manualUV: 1
    elementGroup: -1
    textureGroup: -1
  - _indices: 060000000700000008000000
    _distinctIndices: 060000000700000008000000
    _edges:
    - x: 6
      y: 7
    - x: 7
      y: 8
    - x: 8
      y: 6
    _smoothingGroup: 0
    _uv:
      useWorldSpace: 0
      flipU: 0
      flipV: 0
      swapUV: 0
      fill: 1
      scale: {x: 1, y: 1}
      offset: {x: 0, y: 0}
      rotation: 0
      justify: 0
      localPivot: {x: 0, y: 0}
      localSize: {x: 0, y: 0}
      anchor: 6
    _mat: {fileID: 2100000, guid: 55296d1b6ee54e14e8eb4648d4b448ee, type: 2}
    manualUV: 1
    elementGroup: -1
    textureGroup: -1
  - _indices: 090000000a0000000b000000
    _distinctIndices: 090000000a0000000b000000
    _edges:
    - x: 9
      y: 10
    - x: 10
      y: 11
    - x: 11
      y: 9
    _smoothingGroup: 0
    _uv:
      useWorldSpace: 0
      flipU: 0
      flipV: 0
      swapUV: 0
      fill: 1
      scale: {x: 1, y: 1}
      offset: {x: 0, y: 0}
      rotation: 0
      justify: 0
      localPivot: {x: 0, y: 0}
      localSize: {x: 0, y: 0}
      anchor: 6
    _mat: {fileID: 2100000, guid: 55296d1b6ee54e14e8eb4648d4b448ee, type: 2}
    manualUV: 1
    elementGroup: -1
    textureGroup: -1
  - _indices: 0c0000000d0000000e000000
    _distinctIndices: 0c0000000d0000000e000000
    _edges:
    - x: 12
      y: 13
    - x: 13
      y: 14
    - x: 14
      y: 12
    _smoothingGroup: 0
    _uv:
      useWorldSpace: 0
      flipU: 0
      flipV: 0
      swapUV: 0
      fill: 1
      scale: {x: 1, y: 1}
      offset: {x: 0, y: 0}
      rotation: 0
      justify: 0
      localPivot: {x: 0, y: 0}
      localSize: {x: 0, y: 0}
      anchor: 6
    _mat: {fileID: 2100000, guid: 55296d1b6ee54e14e8eb4648d4b448ee, type: 2}
    manualUV: 1
    elementGroup: -1
    textureGroup: -1
  - _indices: 0f0000001000000011000000
    _distinctIndices: 0f0000001000000011000000
    _edges:
    - x: 15
      y: 16
    - x: 16
      y: 17
    - x: 17
      y: 15
    _smoothingGroup: 0
    _uv:
      useWorldSpace: 0
      flipU: 0
      flipV: 0
      swapUV: 0
      fill: 1
      scale: {x: 1, y: 1}
      offset: {x: 0, y: 0}
      rotation: 0
      justify: 0
      localPivot: {x: 0, y: 0}
      localSize: {x: 0, y: 0}
      anchor: 6
    _mat: {fileID: 2100000, guid: 55296d1b6ee54e14e8eb4648d4b448ee, type: 2}
    manualUV: 1
    elementGroup: -1
    textureGroup: -1
  - _indices: 120000001300000014000000
    _distinctIndices: 120000001300000014000000
    _edges:
    - x: 18
      y: 19
    - x: 19
      y: 20
    - x: 20
      y: 18
    _smoothingGroup: 0
    _uv:
      useWorldSpace: 0
      flipU: 0
      flipV: 0
      swapUV: 0
      fill: 1
      scale: {x: 1, y: 1}
      offset: {x: 0, y: 0}
      rotation: 0
      justify: 0
      localPivot: {x: 0, y: 0}
      localSize: {x: 0, y: 0}
      anchor: 6
    _mat: {fileID: 2100000, guid: 55296d1b6ee54e14e8eb4648d4b448ee, type: 2}
    manualUV: 1
    elementGroup: -1
    textureGroup: -1
  - _indices: 150000001600000017000000
    _distinctIndices: 150000001600000017000000
    _edges:
    - x: 21
      y: 22
    - x: 22
      y: 23
    - x: 23
      y: 21
    _smoothingGroup: 0
    _uv:
      useWorldSpace: 0
      flipU: 0
      flipV: 0
      swapUV: 0
      fill: 1
      scale: {x: 1, y: 1}
      offset: {x: 0, y: 0}
      rotation: 0
      justify: 0
      localPivot: {x: 0, y: 0}
      localSize: {x: 0, y: 0}
      anchor: 6
    _mat: {fileID: 2100000, guid: 55296d1b6ee54e14e8eb4648d4b448ee, type: 2}
    manualUV: 1
    elementGroup: -1
    textureGroup: -1
  - _indices: 18000000190000001a000000
    _distinctIndices: 18000000190000001a000000
    _edges:
    - x: 24
      y: 25
    - x: 25
      y: 26
    - x: 26
      y: 24
    _smoothingGroup: 0
    _uv:
      useWorldSpace: 0
      flipU: 0
      flipV: 0
      swapUV: 0
      fill: 1
      scale: {x: 1, y: 1}
      offset: {x: 0, y: 0}
      rotation: 0
      justify: 0
      localPivot: {x: 0, y: 0}
      localSize: {x: 0, y: 0}
      anchor: 6
    _mat: {fileID: 2100000, guid: 55296d1b6ee54e14e8eb4648d4b448ee, type: 2}
    manualUV: 1
    elementGroup: -1
    textureGroup: -1
  - _indices: 1b0000001c0000001d000000
    _distinctIndices: 1b0000001c0000001d000000
    _edges:
    - x: 27
      y: 28
    - x: 28
      y: 29
    - x: 29
      y: 27
    _smoothingGroup: 0
    _uv:
      useWorldSpace: 0
      flipU: 0
      flipV: 0
      swapUV: 0
      fill: 1
      scale: {x: 1, y: 1}
      offset: {x: 0, y: 0}
      rotation: 0
      justify: 0
      localPivot: {x: 0, y: 0}
      localSize: {x: 0, y: 0}
      anchor: 6
    _mat: {fileID: 2100000, guid: 55296d1b6ee54e14e8eb4648d4b448ee, type: 2}
    manualUV: 1
    elementGroup: -1
    textureGroup: -1
  - _indices: 1e0000001f00000020000000
    _distinctIndices: 1e0000001f00000020000000
    _edges:
    - x: 30
      y: 31
    - x: 31
      y: 32
    - x: 32
      y: 30
    _smoothingGroup: 0
    _uv:
      useWorldSpace: 0
      flipU: 0
      flipV: 0
      swapUV: 0
      fill: 1
      scale: {x: 1, y: 1}
      offset: {x: 0, y: 0}
      rotation: 0
      justify: 0
      localPivot: {x: 0, y: 0}
      localSize: {x: 0, y: 0}
      anchor: 6
    _mat: {fileID: 2100000, guid: 55296d1b6ee54e14e8eb4648d4b448ee, type: 2}
    manualUV: 1
    elementGroup: -1
    textureGroup: -1
  - _indices: 210000002200000023000000
    _distinctIndices: 210000002200000023000000
    _edges:
    - x: 33
      y: 34
    - x: 34
      y: 35
    - x: 35
      y: 33
    _smoothingGroup: 0
    _uv:
      useWorldSpace: 0
      flipU: 0
      flipV: 0
      swapUV: 0
      fill: 1
      scale: {x: 1, y: 1}
      offset: {x: 0, y: 0}
      rotation: 0
      justify: 0
      localPivot: {x: 0, y: 0}
      localSize: {x: 0, y: 0}
      anchor: 6
    _mat: {fileID: 2100000, guid: 55296d1b6ee54e14e8eb4648d4b448ee, type: 2}
    manualUV: 1
    elementGroup: -1
    textureGroup: -1
  - _indices: 240000002500000026000000
    _distinctIndices: 240000002500000026000000
    _edges:
    - x: 36
      y: 37
    - x: 37
      y: 38
    - x: 38
      y: 36
    _smoothingGroup: 0
    _uv:
      useWorldSpace: 0
      flipU: 0
      flipV: 0
      swapUV: 0
      fill: 1
      scale: {x: 1, y: 1}
      offset: {x: 0, y: 0}
      rotation: 0
      justify: 0
      localPivot: {x: 0, y: 0}
      localSize: {x: 0, y: 0}
      anchor: 6
    _mat: {fileID: 2100000, guid: 55296d1b6ee54e14e8eb4648d4b448ee, type: 2}
    manualUV: 1
    elementGroup: -1
    textureGroup: -1
  - _indices: 270000002800000029000000
    _distinctIndices: 270000002800000029000000
    _edges:
    - x: 39
      y: 40
    - x: 40
      y: 41
    - x: 41
      y: 39
    _smoothingGroup: 0
    _uv:
      useWorldSpace: 0
      flipU: 0
      flipV: 0
      swapUV: 0
      fill: 1
      scale: {x: 1, y: 1}
      offset: {x: 0, y: 0}
      rotation: 0
      justify: 0
      localPivot: {x: 0, y: 0}
      localSize: {x: 0, y: 0}
      anchor: 6
    _mat: {fileID: 2100000, guid: 55296d1b6ee54e14e8eb4648d4b448ee, type: 2}
    manualUV: 1
    elementGroup: -1
    textureGroup: -1
  - _indices: 2a0000002b0000002c000000
    _distinctIndices: 2a0000002b0000002c000000
    _edges:
    - x: 42
      y: 43
    - x: 43
      y: 44
    - x: 44
      y: 42
    _smoothingGroup: 0
    _uv:
      useWorldSpace: 0
      flipU: 0
      flipV: 0
      swapUV: 0
      fill: 1
      scale: {x: 1, y: 1}
      offset: {x: 0, y: 0}
      rotation: 0
      justify: 0
      localPivot: {x: 0, y: 0}
      localSize: {x: 0, y: 0}
      anchor: 6
    _mat: {fileID: 2100000, guid: 55296d1b6ee54e14e8eb4648d4b448ee, type: 2}
    manualUV: 1
    elementGroup: -1
    textureGroup: -1
  - _indices: 2d0000002e0000002f000000
    _distinctIndices: 2d0000002e0000002f000000
    _edges:
    - x: 45
      y: 46
    - x: 46
      y: 47
    - x: 47
      y: 45
    _smoothingGroup: 0
    _uv:
      useWorldSpace: 0
      flipU: 0
      flipV: 0
      swapUV: 0
      fill: 1
      scale: {x: 1, y: 1}
      offset: {x: 0, y: 0}
      rotation: 0
      justify: 0
      localPivot: {x: 0, y: 0}
      localSize: {x: 0, y: 0}
      anchor: 6
    _mat: {fileID: 2100000, guid: 55296d1b6ee54e14e8eb4648d4b448ee, type: 2}
    manualUV: 1
    elementGroup: -1
    textureGroup: -1
  - _indices: 300000003100000032000000
    _distinctIndices: 300000003100000032000000
    _edges:
    - x: 48
      y: 49
    - x: 49
      y: 50
    - x: 50
      y: 48
    _smoothingGroup: 0
    _uv:
      useWorldSpace: 0
      flipU: 0
      flipV: 0
      swapUV: 0
      fill: 1
      scale: {x: 1, y: 1}
      offset: {x: 0, y: 0}
      rotation: 0
      justify: 0
      localPivot: {x: 0, y: 0}
      localSize: {x: 0, y: 0}
      anchor: 6
    _mat: {fileID: 2100000, guid: 55296d1b6ee54e14e8eb4648d4b448ee, type: 2}
    manualUV: 1
    elementGroup: -1
    textureGroup: -1
  - _indices: 330000003400000035000000
    _distinctIndices: 330000003400000035000000
    _edges:
    - x: 51
      y: 52
    - x: 52
      y: 53
    - x: 53
      y: 51
    _smoothingGroup: 0
    _uv:
      useWorldSpace: 0
      flipU: 0
      flipV: 0
      swapUV: 0
      fill: 1
      scale: {x: 1, y: 1}
      offset: {x: 0, y: 0}
      rotation: 0
      justify: 0
      localPivot: {x: 0, y: 0}
      localSize: {x: 0, y: 0}
      anchor: 6
    _mat: {fileID: 2100000, guid: 55296d1b6ee54e14e8eb4648d4b448ee, type: 2}
    manualUV: 1
    elementGroup: -1
    textureGroup: -1
  - _indices: 360000003700000038000000
    _distinctIndices: 360000003700000038000000
    _edges:
    - x: 54
      y: 55
    - x: 55
      y: 56
    - x: 56
      y: 54
    _smoothingGroup: 0
    _uv:
      useWorldSpace: 0
      flipU: 0
      flipV: 0
      swapUV: 0
      fill: 1
      scale: {x: 1, y: 1}
      offset: {x: 0, y: 0}
      rotation: 0
      justify: 0
      localPivot: {x: 0, y: 0}
      localSize: {x: 0, y: 0}
      anchor: 6
    _mat: {fileID: 2100000, guid: 55296d1b6ee54e14e8eb4648d4b448ee, type: 2}
    manualUV: 1
    elementGroup: -1
    textureGroup: -1
  - _indices: 390000003a0000003b000000
    _distinctIndices: 390000003a0000003b000000
    _edges:
    - x: 57
      y: 58
    - x: 58
      y: 59
    - x: 59
      y: 57
    _smoothingGroup: 0
    _uv:
      useWorldSpace: 0
      flipU: 0
      flipV: 0
      swapUV: 0
      fill: 1
      scale: {x: 1, y: 1}
      offset: {x: 0, y: 0}
      rotation: 0
      justify: 0
      localPivot: {x: 0, y: 0}
      localSize: {x: 0, y: 0}
      anchor: 6
    _mat: {fileID: 2100000, guid: 55296d1b6ee54e14e8eb4648d4b448ee, type: 2}
    manualUV: 1
    elementGroup: -1
    textureGroup: -1
  - _indices: 3c0000003d0000003e000000
    _distinctIndices: 3c0000003d0000003e000000
    _edges:
    - x: 60
      y: 61
    - x: 61
      y: 62
    - x: 62
      y: 60
    _smoothingGroup: 0
    _uv:
      useWorldSpace: 0
      flipU: 0
      flipV: 0
      swapUV: 0
      fill: 1
      scale: {x: 1, y: 1}
      offset: {x: 0, y: 0}
      rotation: 0
      justify: 0
      localPivot: {x: 0, y: 0}
      localSize: {x: 0, y: 0}
      anchor: 6
    _mat: {fileID: 2100000, guid: 55296d1b6ee54e14e8eb4648d4b448ee, type: 2}
    manualUV: 1
    elementGroup: -1
    textureGroup: -1
  - _indices: 3f0000004000000041000000
    _distinctIndices: 3f0000004000000041000000
    _edges:
    - x: 63
      y: 64
    - x: 64
      y: 65
    - x: 65
      y: 63
    _smoothingGroup: 0
    _uv:
      useWorldSpace: 0
      flipU: 0
      flipV: 0
      swapUV: 0
      fill: 1
      scale: {x: 1, y: 1}
      offset: {x: 0, y: 0}
      rotation: 0
      justify: 0
      localPivot: {x: 0, y: 0}
      localSize: {x: 0, y: 0}
      anchor: 6
    _mat: {fileID: 2100000, guid: 55296d1b6ee54e14e8eb4648d4b448ee, type: 2}
    manualUV: 1
    elementGroup: -1
    textureGroup: -1
  - _indices: 420000004300000044000000
    _distinctIndices: 420000004300000044000000
    _edges:
    - x: 66
      y: 67
    - x: 67
      y: 68
    - x: 68
      y: 66
    _smoothingGroup: 0
    _uv:
      useWorldSpace: 0
      flipU: 0
      flipV: 0
      swapUV: 0
      fill: 1
      scale: {x: 1, y: 1}
      offset: {x: 0, y: 0}
      rotation: 0
      justify: 0
      localPivot: {x: 0, y: 0}
      localSize: {x: 0, y: 0}
      anchor: 6
    _mat: {fileID: 2100000, guid: 55296d1b6ee54e14e8eb4648d4b448ee, type: 2}
    manualUV: 1
    elementGroup: -1
    textureGroup: -1
  - _indices: 450000004600000047000000
    _distinctIndices: 450000004600000047000000
    _edges:
    - x: 69
      y: 70
    - x: 70
      y: 71
    - x: 71
      y: 69
    _smoothingGroup: 0
    _uv:
      useWorldSpace: 0
      flipU: 0
      flipV: 0
      swapUV: 0
      fill: 1
      scale: {x: 1, y: 1}
      offset: {x: 0, y: 0}
      rotation: 0
      justify: 0
      localPivot: {x: 0, y: 0}
      localSize: {x: 0, y: 0}
      anchor: 6
    _mat: {fileID: 2100000, guid: 55296d1b6ee54e14e8eb4648d4b448ee, type: 2}
    manualUV: 1
    elementGroup: -1
    textureGroup: -1
  - _indices: 48000000490000004a000000
    _distinctIndices: 48000000490000004a000000
    _edges:
    - x: 72
      y: 73
    - x: 73
      y: 74
    - x: 74
      y: 72
    _smoothingGroup: 0
    _uv:
      useWorldSpace: 0
      flipU: 0
      flipV: 0
      swapUV: 0
      fill: 1
      scale: {x: 1, y: 1}
      offset: {x: 0, y: 0}
      rotation: 0
      justify: 0
      localPivot: {x: 0, y: 0}
      localSize: {x: 0, y: 0}
      anchor: 6
    _mat: {fileID: 2100000, guid: 55296d1b6ee54e14e8eb4648d4b448ee, type: 2}
    manualUV: 1
    elementGroup: -1
    textureGroup: -1
  - _indices: 4b0000004c0000004d000000
    _distinctIndices: 4b0000004c0000004d000000
    _edges:
    - x: 75
      y: 76
    - x: 76
      y: 77
    - x: 77
      y: 75
    _smoothingGroup: 0
    _uv:
      useWorldSpace: 0
      flipU: 0
      flipV: 0
      swapUV: 0
      fill: 1
      scale: {x: 1, y: 1}
      offset: {x: 0, y: 0}
      rotation: 0
      justify: 0
      localPivot: {x: 0, y: 0}
      localSize: {x: 0, y: 0}
      anchor: 6
    _mat: {fileID: 2100000, guid: 55296d1b6ee54e14e8eb4648d4b448ee, type: 2}
    manualUV: 1
    elementGroup: -1
    textureGroup: -1
  - _indices: 4e0000004f00000050000000
    _distinctIndices: 4e0000004f00000050000000
    _edges:
    - x: 78
      y: 79
    - x: 79
      y: 80
    - x: 80
      y: 78
    _smoothingGroup: 0
    _uv:
      useWorldSpace: 0
      flipU: 0
      flipV: 0
      swapUV: 0
      fill: 1
      scale: {x: 1, y: 1}
      offset: {x: 0, y: 0}
      rotation: 0
      justify: 0
      localPivot: {x: 0, y: 0}
      localSize: {x: 0, y: 0}
      anchor: 6
    _mat: {fileID: 2100000, guid: 55296d1b6ee54e14e8eb4648d4b448ee, type: 2}
    manualUV: 1
    elementGroup: -1
    textureGroup: -1
  - _indices: 510000005200000053000000
    _distinctIndices: 510000005200000053000000
    _edges:
    - x: 81
      y: 82
    - x: 82
      y: 83
    - x: 83
      y: 81
    _smoothingGroup: 0
    _uv:
      useWorldSpace: 0
      flipU: 0
      flipV: 0
      swapUV: 0
      fill: 1
      scale: {x: 1, y: 1}
      offset: {x: 0, y: 0}
      rotation: 0
      justify: 0
      localPivot: {x: 0, y: 0}
      localSize: {x: 0, y: 0}
      anchor: 6
    _mat: {fileID: 2100000, guid: 55296d1b6ee54e14e8eb4648d4b448ee, type: 2}
    manualUV: 1
    elementGroup: -1
    textureGroup: -1
  - _indices: 540000005500000056000000
    _distinctIndices: 540000005500000056000000
    _edges:
    - x: 84
      y: 85
    - x: 85
      y: 86
    - x: 86
      y: 84
    _smoothingGroup: 0
    _uv:
      useWorldSpace: 0
      flipU: 0
      flipV: 0
      swapUV: 0
      fill: 1
      scale: {x: 1, y: 1}
      offset: {x: 0, y: 0}
      rotation: 0
      justify: 0
      localPivot: {x: 0, y: 0}
      localSize: {x: 0, y: 0}
      anchor: 6
    _mat: {fileID: 2100000, guid: 55296d1b6ee54e14e8eb4648d4b448ee, type: 2}
    manualUV: 1
    elementGroup: -1
    textureGroup: -1
  - _indices: 570000005800000059000000
    _distinctIndices: 570000005800000059000000
    _edges:
    - x: 87
      y: 88
    - x: 88
      y: 89
    - x: 89
      y: 87
    _smoothingGroup: 0
    _uv:
      useWorldSpace: 0
      flipU: 0
      flipV: 0
      swapUV: 0
      fill: 1
      scale: {x: 1, y: 1}
      offset: {x: 0, y: 0}
      rotation: 0
      justify: 0
      localPivot: {x: 0, y: 0}
      localSize: {x: 0, y: 0}
      anchor: 6
    _mat: {fileID: 2100000, guid: 55296d1b6ee54e14e8eb4648d4b448ee, type: 2}
    manualUV: 1
    elementGroup: -1
    textureGroup: -1
  - _indices: 5a0000005b0000005c000000
    _distinctIndices: 5a0000005b0000005c000000
    _edges:
    - x: 90
      y: 91
    - x: 91
      y: 92
    - x: 92
      y: 90
    _smoothingGroup: 0
    _uv:
      useWorldSpace: 0
      flipU: 0
      flipV: 0
      swapUV: 0
      fill: 1
      scale: {x: 1, y: 1}
      offset: {x: 0, y: 0}
      rotation: 0
      justify: 0
      localPivot: {x: 0, y: 0}
      localSize: {x: 0, y: 0}
      anchor: 6
    _mat: {fileID: 2100000, guid: 55296d1b6ee54e14e8eb4648d4b448ee, type: 2}
    manualUV: 1
    elementGroup: -1
    textureGroup: -1
  - _indices: 5d0000005e0000005f000000
    _distinctIndices: 5d0000005e0000005f000000
    _edges:
    - x: 93
      y: 94
    - x: 94
      y: 95
    - x: 95
      y: 93
    _smoothingGroup: 0
    _uv:
      useWorldSpace: 0
      flipU: 0
      flipV: 0
      swapUV: 0
      fill: 1
      scale: {x: 1, y: 1}
      offset: {x: 0, y: 0}
      rotation: 0
      justify: 0
      localPivot: {x: 0, y: 0}
      localSize: {x: 0, y: 0}
      anchor: 6
    _mat: {fileID: 2100000, guid: 55296d1b6ee54e14e8eb4648d4b448ee, type: 2}
    manualUV: 1
    elementGroup: -1
    textureGroup: -1
  - _indices: 600000006100000062000000
    _distinctIndices: 600000006100000062000000
    _edges:
    - x: 96
      y: 97
    - x: 97
      y: 98
    - x: 98
      y: 96
    _smoothingGroup: 0
    _uv:
      useWorldSpace: 0
      flipU: 0
      flipV: 0
      swapUV: 0
      fill: 1
      scale: {x: 1, y: 1}
      offset: {x: 0, y: 0}
      rotation: 0
      justify: 0
      localPivot: {x: 0, y: 0}
      localSize: {x: 0, y: 0}
      anchor: 6
    _mat: {fileID: 2100000, guid: 55296d1b6ee54e14e8eb4648d4b448ee, type: 2}
    manualUV: 1
    elementGroup: -1
    textureGroup: -1
  - _indices: 630000006400000065000000
    _distinctIndices: 630000006400000065000000
    _edges:
    - x: 99
      y: 100
    - x: 100
      y: 101
    - x: 101
      y: 99
    _smoothingGroup: 0
    _uv:
      useWorldSpace: 0
      flipU: 0
      flipV: 0
      swapUV: 0
      fill: 1
      scale: {x: 1, y: 1}
      offset: {x: 0, y: 0}
      rotation: 0
      justify: 0
      localPivot: {x: 0, y: 0}
      localSize: {x: 0, y: 0}
      anchor: 6
    _mat: {fileID: 2100000, guid: 55296d1b6ee54e14e8eb4648d4b448ee, type: 2}
    manualUV: 1
    elementGroup: -1
    textureGroup: -1
  - _indices: 660000006700000068000000
    _distinctIndices: 660000006700000068000000
    _edges:
    - x: 102
      y: 103
    - x: 103
      y: 104
    - x: 104
      y: 102
    _smoothingGroup: 0
    _uv:
      useWorldSpace: 0
      flipU: 0
      flipV: 0
      swapUV: 0
      fill: 1
      scale: {x: 1, y: 1}
      offset: {x: 0, y: 0}
      rotation: 0
      justify: 0
      localPivot: {x: 0, y: 0}
      localSize: {x: 0, y: 0}
      anchor: 6
    _mat: {fileID: 2100000, guid: 55296d1b6ee54e14e8eb4648d4b448ee, type: 2}
    manualUV: 1
    elementGroup: -1
    textureGroup: -1
  - _indices: 690000006a0000006b000000
    _distinctIndices: 690000006a0000006b000000
    _edges:
    - x: 105
      y: 106
    - x: 106
      y: 107
    - x: 107
      y: 105
    _smoothingGroup: 0
    _uv:
      useWorldSpace: 0
      flipU: 0
      flipV: 0
      swapUV: 0
      fill: 1
      scale: {x: 1, y: 1}
      offset: {x: 0, y: 0}
      rotation: 0
      justify: 0
      localPivot: {x: 0, y: 0}
      localSize: {x: 0, y: 0}
      anchor: 6
    _mat: {fileID: 2100000, guid: 55296d1b6ee54e14e8eb4648d4b448ee, type: 2}
    manualUV: 1
    elementGroup: -1
    textureGroup: -1
  - _indices: 6c0000006d0000006e000000
    _distinctIndices: 6c0000006d0000006e000000
    _edges:
    - x: 108
      y: 109
    - x: 109
      y: 110
    - x: 110
      y: 108
    _smoothingGroup: 0
    _uv:
      useWorldSpace: 0
      flipU: 0
      flipV: 0
      swapUV: 0
      fill: 1
      scale: {x: 1, y: 1}
      offset: {x: 0, y: 0}
      rotation: 0
      justify: 0
      localPivot: {x: 0, y: 0}
      localSize: {x: 0, y: 0}
      anchor: 6
    _mat: {fileID: 2100000, guid: 55296d1b6ee54e14e8eb4648d4b448ee, type: 2}
    manualUV: 1
    elementGroup: -1
    textureGroup: -1
  - _indices: 6f0000007000000071000000
    _distinctIndices: 6f0000007000000071000000
    _edges:
    - x: 111
      y: 112
    - x: 112
      y: 113
    - x: 113
      y: 111
    _smoothingGroup: 0
    _uv:
      useWorldSpace: 0
      flipU: 0
      flipV: 0
      swapUV: 0
      fill: 1
      scale: {x: 1, y: 1}
      offset: {x: 0, y: 0}
      rotation: 0
      justify: 0
      localPivot: {x: 0, y: 0}
      localSize: {x: 0, y: 0}
      anchor: 6
    _mat: {fileID: 2100000, guid: 55296d1b6ee54e14e8eb4648d4b448ee, type: 2}
    manualUV: 1
    elementGroup: -1
    textureGroup: -1
  - _indices: 720000007300000074000000
    _distinctIndices: 720000007300000074000000
    _edges:
    - x: 114
      y: 115
    - x: 115
      y: 116
    - x: 116
      y: 114
    _smoothingGroup: 0
    _uv:
      useWorldSpace: 0
      flipU: 0
      flipV: 0
      swapUV: 0
      fill: 1
      scale: {x: 1, y: 1}
      offset: {x: 0, y: 0}
      rotation: 0
      justify: 0
      localPivot: {x: 0, y: 0}
      localSize: {x: 0, y: 0}
      anchor: 6
    _mat: {fileID: 2100000, guid: 55296d1b6ee54e14e8eb4648d4b448ee, type: 2}
    manualUV: 1
    elementGroup: -1
    textureGroup: -1
  - _indices: 750000007600000077000000
    _distinctIndices: 750000007600000077000000
    _edges:
    - x: 117
      y: 118
    - x: 118
      y: 119
    - x: 119
      y: 117
    _smoothingGroup: 0
    _uv:
      useWorldSpace: 0
      flipU: 0
      flipV: 0
      swapUV: 0
      fill: 1
      scale: {x: 1, y: 1}
      offset: {x: 0, y: 0}
      rotation: 0
      justify: 0
      localPivot: {x: 0, y: 0}
      localSize: {x: 0, y: 0}
      anchor: 6
    _mat: {fileID: 2100000, guid: 55296d1b6ee54e14e8eb4648d4b448ee, type: 2}
    manualUV: 1
    elementGroup: -1
    textureGroup: -1
  - _indices: 78000000790000007a000000
    _distinctIndices: 78000000790000007a000000
    _edges:
    - x: 120
      y: 121
    - x: 121
      y: 122
    - x: 122
      y: 120
    _smoothingGroup: 0
    _uv:
      useWorldSpace: 0
      flipU: 0
      flipV: 0
      swapUV: 0
      fill: 1
      scale: {x: 1, y: 1}
      offset: {x: 0, y: 0}
      rotation: 0
      justify: 0
      localPivot: {x: 0, y: 0}
      localSize: {x: 0, y: 0}
      anchor: 6
    _mat: {fileID: 2100000, guid: 55296d1b6ee54e14e8eb4648d4b448ee, type: 2}
    manualUV: 1
    elementGroup: -1
    textureGroup: -1
  - _indices: 7b0000007c0000007d000000
    _distinctIndices: 7b0000007c0000007d000000
    _edges:
    - x: 123
      y: 124
    - x: 124
      y: 125
    - x: 125
      y: 123
    _smoothingGroup: 0
    _uv:
      useWorldSpace: 0
      flipU: 0
      flipV: 0
      swapUV: 0
      fill: 1
      scale: {x: 1, y: 1}
      offset: {x: 0, y: 0}
      rotation: 0
      justify: 0
      localPivot: {x: 0, y: 0}
      localSize: {x: 0, y: 0}
      anchor: 6
    _mat: {fileID: 2100000, guid: 55296d1b6ee54e14e8eb4648d4b448ee, type: 2}
    manualUV: 1
    elementGroup: -1
    textureGroup: -1
  - _indices: 7e0000007f00000080000000
    _distinctIndices: 7e0000007f00000080000000
    _edges:
    - x: 126
      y: 127
    - x: 127
      y: 128
    - x: 128
      y: 126
    _smoothingGroup: 0
    _uv:
      useWorldSpace: 0
      flipU: 0
      flipV: 0
      swapUV: 0
      fill: 1
      scale: {x: 1, y: 1}
      offset: {x: 0, y: 0}
      rotation: 0
      justify: 0
      localPivot: {x: 0, y: 0}
      localSize: {x: 0, y: 0}
      anchor: 6
    _mat: {fileID: 2100000, guid: 55296d1b6ee54e14e8eb4648d4b448ee, type: 2}
    manualUV: 1
    elementGroup: -1
    textureGroup: -1
  - _indices: 810000008200000083000000
    _distinctIndices: 810000008200000083000000
    _edges:
    - x: 129
      y: 130
    - x: 130
      y: 131
    - x: 131
      y: 129
    _smoothingGroup: 0
    _uv:
      useWorldSpace: 0
      flipU: 0
      flipV: 0
      swapUV: 0
      fill: 1
      scale: {x: 1, y: 1}
      offset: {x: 0, y: 0}
      rotation: 0
      justify: 0
      localPivot: {x: 0, y: 0}
      localSize: {x: 0, y: 0}
      anchor: 6
    _mat: {fileID: 2100000, guid: 55296d1b6ee54e14e8eb4648d4b448ee, type: 2}
    manualUV: 1
    elementGroup: -1
    textureGroup: -1
  - _indices: 840000008500000086000000
    _distinctIndices: 840000008500000086000000
    _edges:
    - x: 132
      y: 133
    - x: 133
      y: 134
    - x: 134
      y: 132
    _smoothingGroup: 0
    _uv:
      useWorldSpace: 0
      flipU: 0
      flipV: 0
      swapUV: 0
      fill: 1
      scale: {x: 1, y: 1}
      offset: {x: 0, y: 0}
      rotation: 0
      justify: 0
      localPivot: {x: 0, y: 0}
      localSize: {x: 0, y: 0}
      anchor: 6
    _mat: {fileID: 2100000, guid: 55296d1b6ee54e14e8eb4648d4b448ee, type: 2}
    manualUV: 1
    elementGroup: -1
    textureGroup: -1
  - _indices: 870000008800000089000000
    _distinctIndices: 870000008800000089000000
    _edges:
    - x: 135
      y: 136
    - x: 136
      y: 137
    - x: 137
      y: 135
    _smoothingGroup: 0
    _uv:
      useWorldSpace: 0
      flipU: 0
      flipV: 0
      swapUV: 0
      fill: 1
      scale: {x: 1, y: 1}
      offset: {x: 0, y: 0}
      rotation: 0
      justify: 0
      localPivot: {x: 0, y: 0}
      localSize: {x: 0, y: 0}
      anchor: 6
    _mat: {fileID: 2100000, guid: 55296d1b6ee54e14e8eb4648d4b448ee, type: 2}
    manualUV: 1
    elementGroup: -1
    textureGroup: -1
  - _indices: 8a0000008b0000008c000000
    _distinctIndices: 8a0000008b0000008c000000
    _edges:
    - x: 138
      y: 139
    - x: 139
      y: 140
    - x: 140
      y: 138
    _smoothingGroup: 0
    _uv:
      useWorldSpace: 0
      flipU: 0
      flipV: 0
      swapUV: 0
      fill: 1
      scale: {x: 1, y: 1}
      offset: {x: 0, y: 0}
      rotation: 0
      justify: 0
      localPivot: {x: 0, y: 0}
      localSize: {x: 0, y: 0}
      anchor: 6
    _mat: {fileID: 2100000, guid: 55296d1b6ee54e14e8eb4648d4b448ee, type: 2}
    manualUV: 1
    elementGroup: -1
    textureGroup: -1
  - _indices: 8d0000008e0000008f000000
    _distinctIndices: 8d0000008e0000008f000000
    _edges:
    - x: 141
      y: 142
    - x: 142
      y: 143
    - x: 143
      y: 141
    _smoothingGroup: 0
    _uv:
      useWorldSpace: 0
      flipU: 0
      flipV: 0
      swapUV: 0
      fill: 1
      scale: {x: 1, y: 1}
      offset: {x: 0, y: 0}
      rotation: 0
      justify: 0
      localPivot: {x: 0, y: 0}
      localSize: {x: 0, y: 0}
      anchor: 6
    _mat: {fileID: 2100000, guid: 55296d1b6ee54e14e8eb4648d4b448ee, type: 2}
    manualUV: 1
    elementGroup: -1
    textureGroup: -1
  - _indices: 900000009100000092000000
    _distinctIndices: 900000009100000092000000
    _edges:
    - x: 144
      y: 145
    - x: 145
      y: 146
    - x: 146
      y: 144
    _smoothingGroup: 0
    _uv:
      useWorldSpace: 0
      flipU: 0
      flipV: 0
      swapUV: 0
      fill: 1
      scale: {x: 1, y: 1}
      offset: {x: 0, y: 0}
      rotation: 0
      justify: 0
      localPivot: {x: 0, y: 0}
      localSize: {x: 0, y: 0}
      anchor: 6
    _mat: {fileID: 2100000, guid: 55296d1b6ee54e14e8eb4648d4b448ee, type: 2}
    manualUV: 1
    elementGroup: -1
    textureGroup: -1
  - _indices: 930000009400000095000000
    _distinctIndices: 930000009400000095000000
    _edges:
    - x: 147
      y: 148
    - x: 148
      y: 149
    - x: 149
      y: 147
    _smoothingGroup: 0
    _uv:
      useWorldSpace: 0
      flipU: 0
      flipV: 0
      swapUV: 0
      fill: 1
      scale: {x: 1, y: 1}
      offset: {x: 0, y: 0}
      rotation: 0
      justify: 0
      localPivot: {x: 0, y: 0}
      localSize: {x: 0, y: 0}
      anchor: 6
    _mat: {fileID: 2100000, guid: 55296d1b6ee54e14e8eb4648d4b448ee, type: 2}
    manualUV: 1
    elementGroup: -1
    textureGroup: -1
  - _indices: 960000009700000098000000
    _distinctIndices: 960000009700000098000000
    _edges:
    - x: 150
      y: 151
    - x: 151
      y: 152
    - x: 152
      y: 150
    _smoothingGroup: 0
    _uv:
      useWorldSpace: 0
      flipU: 0
      flipV: 0
      swapUV: 0
      fill: 1
      scale: {x: 1, y: 1}
      offset: {x: 0, y: 0}
      rotation: 0
      justify: 0
      localPivot: {x: 0, y: 0}
      localSize: {x: 0, y: 0}
      anchor: 6
    _mat: {fileID: 2100000, guid: 55296d1b6ee54e14e8eb4648d4b448ee, type: 2}
    manualUV: 1
    elementGroup: -1
    textureGroup: -1
  - _indices: 990000009a0000009b000000
    _distinctIndices: 990000009a0000009b000000
    _edges:
    - x: 153
      y: 154
    - x: 154
      y: 155
    - x: 155
      y: 153
    _smoothingGroup: 0
    _uv:
      useWorldSpace: 0
      flipU: 0
      flipV: 0
      swapUV: 0
      fill: 1
      scale: {x: 1, y: 1}
      offset: {x: 0, y: 0}
      rotation: 0
      justify: 0
      localPivot: {x: 0, y: 0}
      localSize: {x: 0, y: 0}
      anchor: 6
    _mat: {fileID: 2100000, guid: 55296d1b6ee54e14e8eb4648d4b448ee, type: 2}
    manualUV: 1
    elementGroup: -1
    textureGroup: -1
  - _indices: 9c0000009d0000009e000000
    _distinctIndices: 9c0000009d0000009e000000
    _edges:
    - x: 156
      y: 157
    - x: 157
      y: 158
    - x: 158
      y: 156
    _smoothingGroup: 0
    _uv:
      useWorldSpace: 0
      flipU: 0
      flipV: 0
      swapUV: 0
      fill: 1
      scale: {x: 1, y: 1}
      offset: {x: 0, y: 0}
      rotation: 0
      justify: 0
      localPivot: {x: 0, y: 0}
      localSize: {x: 0, y: 0}
      anchor: 6
    _mat: {fileID: 2100000, guid: 55296d1b6ee54e14e8eb4648d4b448ee, type: 2}
    manualUV: 1
    elementGroup: -1
    textureGroup: -1
  - _indices: 9f000000a0000000a1000000
    _distinctIndices: 9f000000a0000000a1000000
    _edges:
    - x: 159
      y: 160
    - x: 160
      y: 161
    - x: 161
      y: 159
    _smoothingGroup: 0
    _uv:
      useWorldSpace: 0
      flipU: 0
      flipV: 0
      swapUV: 0
      fill: 1
      scale: {x: 1, y: 1}
      offset: {x: 0, y: 0}
      rotation: 0
      justify: 0
      localPivot: {x: 0, y: 0}
      localSize: {x: 0, y: 0}
      anchor: 6
    _mat: {fileID: 2100000, guid: 55296d1b6ee54e14e8eb4648d4b448ee, type: 2}
    manualUV: 1
    elementGroup: -1
    textureGroup: -1
  - _indices: a2000000a3000000a4000000
    _distinctIndices: a2000000a3000000a4000000
    _edges:
    - x: 162
      y: 163
    - x: 163
      y: 164
    - x: 164
      y: 162
    _smoothingGroup: 0
    _uv:
      useWorldSpace: 0
      flipU: 0
      flipV: 0
      swapUV: 0
      fill: 1
      scale: {x: 1, y: 1}
      offset: {x: 0, y: 0}
      rotation: 0
      justify: 0
      localPivot: {x: 0, y: 0}
      localSize: {x: 0, y: 0}
      anchor: 6
    _mat: {fileID: 2100000, guid: 55296d1b6ee54e14e8eb4648d4b448ee, type: 2}
    manualUV: 1
    elementGroup: -1
    textureGroup: -1
  - _indices: a5000000a6000000a7000000
    _distinctIndices: a5000000a6000000a7000000
    _edges:
    - x: 165
      y: 166
    - x: 166
      y: 167
    - x: 167
      y: 165
    _smoothingGroup: 0
    _uv:
      useWorldSpace: 0
      flipU: 0
      flipV: 0
      swapUV: 0
      fill: 1
      scale: {x: 1, y: 1}
      offset: {x: 0, y: 0}
      rotation: 0
      justify: 0
      localPivot: {x: 0, y: 0}
      localSize: {x: 0, y: 0}
      anchor: 6
    _mat: {fileID: 2100000, guid: 55296d1b6ee54e14e8eb4648d4b448ee, type: 2}
    manualUV: 1
    elementGroup: -1
    textureGroup: -1
  - _indices: a8000000a9000000aa000000
    _distinctIndices: a8000000a9000000aa000000
    _edges:
    - x: 168
      y: 169
    - x: 169
      y: 170
    - x: 170
      y: 168
    _smoothingGroup: 0
    _uv:
      useWorldSpace: 0
      flipU: 0
      flipV: 0
      swapUV: 0
      fill: 1
      scale: {x: 1, y: 1}
      offset: {x: 0, y: 0}
      rotation: 0
      justify: 0
      localPivot: {x: 0, y: 0}
      localSize: {x: 0, y: 0}
      anchor: 6
    _mat: {fileID: 2100000, guid: 55296d1b6ee54e14e8eb4648d4b448ee, type: 2}
    manualUV: 1
    elementGroup: -1
    textureGroup: -1
  - _indices: ab000000ac000000ad000000
    _distinctIndices: ab000000ac000000ad000000
    _edges:
    - x: 171
      y: 172
    - x: 172
      y: 173
    - x: 173
      y: 171
    _smoothingGroup: 0
    _uv:
      useWorldSpace: 0
      flipU: 0
      flipV: 0
      swapUV: 0
      fill: 1
      scale: {x: 1, y: 1}
      offset: {x: 0, y: 0}
      rotation: 0
      justify: 0
      localPivot: {x: 0, y: 0}
      localSize: {x: 0, y: 0}
      anchor: 6
    _mat: {fileID: 2100000, guid: 55296d1b6ee54e14e8eb4648d4b448ee, type: 2}
    manualUV: 1
    elementGroup: -1
    textureGroup: -1
  - _indices: ae000000af000000b0000000
    _distinctIndices: ae000000af000000b0000000
    _edges:
    - x: 174
      y: 175
    - x: 175
      y: 176
    - x: 176
      y: 174
    _smoothingGroup: 0
    _uv:
      useWorldSpace: 0
      flipU: 0
      flipV: 0
      swapUV: 0
      fill: 1
      scale: {x: 1, y: 1}
      offset: {x: 0, y: 0}
      rotation: 0
      justify: 0
      localPivot: {x: 0, y: 0}
      localSize: {x: 0, y: 0}
      anchor: 6
    _mat: {fileID: 2100000, guid: 55296d1b6ee54e14e8eb4648d4b448ee, type: 2}
    manualUV: 1
    elementGroup: -1
    textureGroup: -1
  - _indices: b1000000b2000000b3000000
    _distinctIndices: b1000000b2000000b3000000
    _edges:
    - x: 177
      y: 178
    - x: 178
      y: 179
    - x: 179
      y: 177
    _smoothingGroup: 0
    _uv:
      useWorldSpace: 0
      flipU: 0
      flipV: 0
      swapUV: 0
      fill: 1
      scale: {x: 1, y: 1}
      offset: {x: 0, y: 0}
      rotation: 0
      justify: 0
      localPivot: {x: 0, y: 0}
      localSize: {x: 0, y: 0}
      anchor: 6
    _mat: {fileID: 2100000, guid: 55296d1b6ee54e14e8eb4648d4b448ee, type: 2}
    manualUV: 1
    elementGroup: -1
    textureGroup: -1
  - _indices: b4000000b5000000b6000000
    _distinctIndices: b4000000b5000000b6000000
    _edges:
    - x: 180
      y: 181
    - x: 181
      y: 182
    - x: 182
      y: 180
    _smoothingGroup: 0
    _uv:
      useWorldSpace: 0
      flipU: 0
      flipV: 0
      swapUV: 0
      fill: 1
      scale: {x: 1, y: 1}
      offset: {x: 0, y: 0}
      rotation: 0
      justify: 0
      localPivot: {x: 0, y: 0}
      localSize: {x: 0, y: 0}
      anchor: 6
    _mat: {fileID: 2100000, guid: 55296d1b6ee54e14e8eb4648d4b448ee, type: 2}
    manualUV: 1
    elementGroup: -1
    textureGroup: -1
  - _indices: b7000000b8000000b9000000
    _distinctIndices: b7000000b8000000b9000000
    _edges:
    - x: 183
      y: 184
    - x: 184
      y: 185
    - x: 185
      y: 183
    _smoothingGroup: 0
    _uv:
      useWorldSpace: 0
      flipU: 0
      flipV: 0
      swapUV: 0
      fill: 1
      scale: {x: 1, y: 1}
      offset: {x: 0, y: 0}
      rotation: 0
      justify: 0
      localPivot: {x: 0, y: 0}
      localSize: {x: 0, y: 0}
      anchor: 6
    _mat: {fileID: 2100000, guid: 55296d1b6ee54e14e8eb4648d4b448ee, type: 2}
    manualUV: 1
    elementGroup: -1
    textureGroup: -1
  - _indices: ba000000bb000000bc000000
    _distinctIndices: ba000000bb000000bc000000
    _edges:
    - x: 186
      y: 187
    - x: 187
      y: 188
    - x: 188
      y: 186
    _smoothingGroup: 0
    _uv:
      useWorldSpace: 0
      flipU: 0
      flipV: 0
      swapUV: 0
      fill: 1
      scale: {x: 1, y: 1}
      offset: {x: 0, y: 0}
      rotation: 0
      justify: 0
      localPivot: {x: 0, y: 0}
      localSize: {x: 0, y: 0}
      anchor: 6
    _mat: {fileID: 2100000, guid: 55296d1b6ee54e14e8eb4648d4b448ee, type: 2}
    manualUV: 1
    elementGroup: -1
    textureGroup: -1
  - _indices: bd000000be000000bf000000
    _distinctIndices: bd000000be000000bf000000
    _edges:
    - x: 189
      y: 190
    - x: 190
      y: 191
    - x: 191
      y: 189
    _smoothingGroup: 0
    _uv:
      useWorldSpace: 0
      flipU: 0
      flipV: 0
      swapUV: 0
      fill: 1
      scale: {x: 1, y: 1}
      offset: {x: 0, y: 0}
      rotation: 0
      justify: 0
      localPivot: {x: 0, y: 0}
      localSize: {x: 0, y: 0}
      anchor: 6
    _mat: {fileID: 2100000, guid: 55296d1b6ee54e14e8eb4648d4b448ee, type: 2}
    manualUV: 1
    elementGroup: -1
    textureGroup: -1
  - _indices: c0000000c1000000c2000000
    _distinctIndices: c0000000c1000000c2000000
    _edges:
    - x: 192
      y: 193
    - x: 193
      y: 194
    - x: 194
      y: 192
    _smoothingGroup: 0
    _uv:
      useWorldSpace: 0
      flipU: 0
      flipV: 0
      swapUV: 0
      fill: 1
      scale: {x: 1, y: 1}
      offset: {x: 0, y: 0}
      rotation: 0
      justify: 0
      localPivot: {x: 0, y: 0}
      localSize: {x: 0, y: 0}
      anchor: 6
    _mat: {fileID: 2100000, guid: 55296d1b6ee54e14e8eb4648d4b448ee, type: 2}
    manualUV: 1
    elementGroup: -1
    textureGroup: -1
  - _indices: c3000000c4000000c5000000
    _distinctIndices: c3000000c4000000c5000000
    _edges:
    - x: 195
      y: 196
    - x: 196
      y: 197
    - x: 197
      y: 195
    _smoothingGroup: 0
    _uv:
      useWorldSpace: 0
      flipU: 0
      flipV: 0
      swapUV: 0
      fill: 1
      scale: {x: 1, y: 1}
      offset: {x: 0, y: 0}
      rotation: 0
      justify: 0
      localPivot: {x: 0, y: 0}
      localSize: {x: 0, y: 0}
      anchor: 6
    _mat: {fileID: 2100000, guid: 55296d1b6ee54e14e8eb4648d4b448ee, type: 2}
    manualUV: 1
    elementGroup: -1
    textureGroup: -1
  - _indices: c6000000c7000000c8000000
    _distinctIndices: c6000000c7000000c8000000
    _edges:
    - x: 198
      y: 199
    - x: 199
      y: 200
    - x: 200
      y: 198
    _smoothingGroup: 0
    _uv:
      useWorldSpace: 0
      flipU: 0
      flipV: 0
      swapUV: 0
      fill: 1
      scale: {x: 1, y: 1}
      offset: {x: 0, y: 0}
      rotation: 0
      justify: 0
      localPivot: {x: 0, y: 0}
      localSize: {x: 0, y: 0}
      anchor: 6
    _mat: {fileID: 2100000, guid: 55296d1b6ee54e14e8eb4648d4b448ee, type: 2}
    manualUV: 1
    elementGroup: -1
    textureGroup: -1
  - _indices: c9000000ca000000cb000000
    _distinctIndices: c9000000ca000000cb000000
    _edges:
    - x: 201
      y: 202
    - x: 202
      y: 203
    - x: 203
      y: 201
    _smoothingGroup: 0
    _uv:
      useWorldSpace: 0
      flipU: 0
      flipV: 0
      swapUV: 0
      fill: 1
      scale: {x: 1, y: 1}
      offset: {x: 0, y: 0}
      rotation: 0
      justify: 0
      localPivot: {x: 0, y: 0}
      localSize: {x: 0, y: 0}
      anchor: 6
    _mat: {fileID: 2100000, guid: 55296d1b6ee54e14e8eb4648d4b448ee, type: 2}
    manualUV: 1
    elementGroup: -1
    textureGroup: -1
  - _indices: cc000000cd000000ce000000
    _distinctIndices: cc000000cd000000ce000000
    _edges:
    - x: 204
      y: 205
    - x: 205
      y: 206
    - x: 206
      y: 204
    _smoothingGroup: 0
    _uv:
      useWorldSpace: 0
      flipU: 0
      flipV: 0
      swapUV: 0
      fill: 1
      scale: {x: 1, y: 1}
      offset: {x: 0, y: 0}
      rotation: 0
      justify: 0
      localPivot: {x: 0, y: 0}
      localSize: {x: 0, y: 0}
      anchor: 6
    _mat: {fileID: 2100000, guid: 55296d1b6ee54e14e8eb4648d4b448ee, type: 2}
    manualUV: 1
    elementGroup: -1
    textureGroup: -1
  - _indices: cf000000d0000000d1000000
    _distinctIndices: cf000000d0000000d1000000
    _edges:
    - x: 207
      y: 208
    - x: 208
      y: 209
    - x: 209
      y: 207
    _smoothingGroup: 0
    _uv:
      useWorldSpace: 0
      flipU: 0
      flipV: 0
      swapUV: 0
      fill: 1
      scale: {x: 1, y: 1}
      offset: {x: 0, y: 0}
      rotation: 0
      justify: 0
      localPivot: {x: 0, y: 0}
      localSize: {x: 0, y: 0}
      anchor: 6
    _mat: {fileID: 2100000, guid: 55296d1b6ee54e14e8eb4648d4b448ee, type: 2}
    manualUV: 1
    elementGroup: -1
    textureGroup: -1
  - _indices: d2000000d3000000d4000000
    _distinctIndices: d2000000d3000000d4000000
    _edges:
    - x: 210
      y: 211
    - x: 211
      y: 212
    - x: 212
      y: 210
    _smoothingGroup: 0
    _uv:
      useWorldSpace: 0
      flipU: 0
      flipV: 0
      swapUV: 0
      fill: 1
      scale: {x: 1, y: 1}
      offset: {x: 0, y: 0}
      rotation: 0
      justify: 0
      localPivot: {x: 0, y: 0}
      localSize: {x: 0, y: 0}
      anchor: 6
    _mat: {fileID: 2100000, guid: 55296d1b6ee54e14e8eb4648d4b448ee, type: 2}
    manualUV: 1
    elementGroup: -1
    textureGroup: -1
  - _indices: d5000000d6000000d7000000
    _distinctIndices: d5000000d6000000d7000000
    _edges:
    - x: 213
      y: 214
    - x: 214
      y: 215
    - x: 215
      y: 213
    _smoothingGroup: 0
    _uv:
      useWorldSpace: 0
      flipU: 0
      flipV: 0
      swapUV: 0
      fill: 1
      scale: {x: 1, y: 1}
      offset: {x: 0, y: 0}
      rotation: 0
      justify: 0
      localPivot: {x: 0, y: 0}
      localSize: {x: 0, y: 0}
      anchor: 6
    _mat: {fileID: 2100000, guid: 55296d1b6ee54e14e8eb4648d4b448ee, type: 2}
    manualUV: 1
    elementGroup: -1
    textureGroup: -1
  - _indices: d8000000d9000000da000000
    _distinctIndices: d8000000d9000000da000000
    _edges:
    - x: 216
      y: 217
    - x: 217
      y: 218
    - x: 218
      y: 216
    _smoothingGroup: 0
    _uv:
      useWorldSpace: 0
      flipU: 0
      flipV: 0
      swapUV: 0
      fill: 1
      scale: {x: 1, y: 1}
      offset: {x: 0, y: 0}
      rotation: 0
      justify: 0
      localPivot: {x: 0, y: 0}
      localSize: {x: 0, y: 0}
      anchor: 6
    _mat: {fileID: 2100000, guid: 55296d1b6ee54e14e8eb4648d4b448ee, type: 2}
    manualUV: 1
    elementGroup: -1
    textureGroup: -1
  - _indices: db000000dc000000dd000000
    _distinctIndices: db000000dc000000dd000000
    _edges:
    - x: 219
      y: 220
    - x: 220
      y: 221
    - x: 221
      y: 219
    _smoothingGroup: 0
    _uv:
      useWorldSpace: 0
      flipU: 0
      flipV: 0
      swapUV: 0
      fill: 1
      scale: {x: 1, y: 1}
      offset: {x: 0, y: 0}
      rotation: 0
      justify: 0
      localPivot: {x: 0, y: 0}
      localSize: {x: 0, y: 0}
      anchor: 6
    _mat: {fileID: 2100000, guid: 55296d1b6ee54e14e8eb4648d4b448ee, type: 2}
    manualUV: 1
    elementGroup: -1
    textureGroup: -1
  - _indices: de000000df000000e0000000
    _distinctIndices: de000000df000000e0000000
    _edges:
    - x: 222
      y: 223
    - x: 223
      y: 224
    - x: 224
      y: 222
    _smoothingGroup: 0
    _uv:
      useWorldSpace: 0
      flipU: 0
      flipV: 0
      swapUV: 0
      fill: 1
      scale: {x: 1, y: 1}
      offset: {x: 0, y: 0}
      rotation: 0
      justify: 0
      localPivot: {x: 0, y: 0}
      localSize: {x: 0, y: 0}
      anchor: 6
    _mat: {fileID: 2100000, guid: 55296d1b6ee54e14e8eb4648d4b448ee, type: 2}
    manualUV: 1
    elementGroup: -1
    textureGroup: -1
  - _indices: e1000000e2000000e3000000
    _distinctIndices: e1000000e2000000e3000000
    _edges:
    - x: 225
      y: 226
    - x: 226
      y: 227
    - x: 227
      y: 225
    _smoothingGroup: 0
    _uv:
      useWorldSpace: 0
      flipU: 0
      flipV: 0
      swapUV: 0
      fill: 1
      scale: {x: 1, y: 1}
      offset: {x: 0, y: 0}
      rotation: 0
      justify: 0
      localPivot: {x: 0, y: 0}
      localSize: {x: 0, y: 0}
      anchor: 6
    _mat: {fileID: 2100000, guid: 55296d1b6ee54e14e8eb4648d4b448ee, type: 2}
    manualUV: 1
    elementGroup: -1
    textureGroup: -1
  - _indices: e4000000e5000000e6000000
    _distinctIndices: e4000000e5000000e6000000
    _edges:
    - x: 228
      y: 229
    - x: 229
      y: 230
    - x: 230
      y: 228
    _smoothingGroup: 0
    _uv:
      useWorldSpace: 0
      flipU: 0
      flipV: 0
      swapUV: 0
      fill: 1
      scale: {x: 1, y: 1}
      offset: {x: 0, y: 0}
      rotation: 0
      justify: 0
      localPivot: {x: 0, y: 0}
      localSize: {x: 0, y: 0}
      anchor: 6
    _mat: {fileID: 2100000, guid: 55296d1b6ee54e14e8eb4648d4b448ee, type: 2}
    manualUV: 1
    elementGroup: -1
    textureGroup: -1
  - _indices: e7000000e8000000e9000000
    _distinctIndices: e7000000e8000000e9000000
    _edges:
    - x: 231
      y: 232
    - x: 232
      y: 233
    - x: 233
      y: 231
    _smoothingGroup: 0
    _uv:
      useWorldSpace: 0
      flipU: 0
      flipV: 0
      swapUV: 0
      fill: 1
      scale: {x: 1, y: 1}
      offset: {x: 0, y: 0}
      rotation: 0
      justify: 0
      localPivot: {x: 0, y: 0}
      localSize: {x: 0, y: 0}
      anchor: 6
    _mat: {fileID: 2100000, guid: 55296d1b6ee54e14e8eb4648d4b448ee, type: 2}
    manualUV: 1
    elementGroup: -1
    textureGroup: -1
  - _indices: ea000000eb000000ec000000
    _distinctIndices: ea000000eb000000ec000000
    _edges:
    - x: 234
      y: 235
    - x: 235
      y: 236
    - x: 236
      y: 234
    _smoothingGroup: 0
    _uv:
      useWorldSpace: 0
      flipU: 0
      flipV: 0
      swapUV: 0
      fill: 1
      scale: {x: 1, y: 1}
      offset: {x: 0, y: 0}
      rotation: 0
      justify: 0
      localPivot: {x: 0, y: 0}
      localSize: {x: 0, y: 0}
      anchor: 6
    _mat: {fileID: 2100000, guid: 55296d1b6ee54e14e8eb4648d4b448ee, type: 2}
    manualUV: 1
    elementGroup: -1
    textureGroup: -1
  - _indices: ed000000ee000000ef000000
    _distinctIndices: ed000000ee000000ef000000
    _edges:
    - x: 237
      y: 238
    - x: 238
      y: 239
    - x: 239
      y: 237
    _smoothingGroup: 0
    _uv:
      useWorldSpace: 0
      flipU: 0
      flipV: 0
      swapUV: 0
      fill: 1
      scale: {x: 1, y: 1}
      offset: {x: 0, y: 0}
      rotation: 0
      justify: 0
      localPivot: {x: 0, y: 0}
      localSize: {x: 0, y: 0}
      anchor: 6
    _mat: {fileID: 2100000, guid: 55296d1b6ee54e14e8eb4648d4b448ee, type: 2}
    manualUV: 1
    elementGroup: -1
    textureGroup: -1
  _sharedIndices:
  - array: 000000000c000000180000002400000030000000
  - array: 010000000300000006000000320000003800000039000000
  - array: 0200000008000000090000000d0000000f00000012000000
  - array: 040000003b0000004c00000054000000cb000000
  - array: 05000000070000000a000000490000004b0000004e000000
  - array: 0b000000100000004000000048000000bf000000
  - array: 0e0000001400000015000000190000001b0000001e000000
  - array: 1100000013000000160000003d0000003f00000042000000
  - array: 170000001c0000003c00000070000000ef000000
  - array: 1a000000200000002100000025000000270000002a000000
  - array: 1d0000001f000000220000006d0000006f00000072000000
  - array: 2300000028000000640000006c000000e3000000
  - array: 260000002c0000002d000000310000003300000036000000
  - array: 290000002b0000002e000000610000006300000066000000
  - array: 2f000000340000005800000060000000d7000000
  - array: 35000000370000003a00000055000000570000005a000000
  - array: 3e0000004400000045000000e6000000ec000000ed000000
  - array: 410000004300000046000000b9000000bb000000be000000
  - array: 470000007c000000b3000000b8000000e4000000
  - array: 4a0000005000000051000000b6000000bc000000bd000000
  - array: 4d0000004f00000052000000c5000000c7000000ca000000
  - array: 530000008300000088000000b4000000c4000000
  - array: 560000005c0000005d000000c2000000c8000000c9000000
  - array: 590000005b0000005e000000d1000000d3000000d6000000
  - array: 5f0000008f00000094000000c0000000d0000000
  - array: 620000006800000069000000ce000000d4000000d5000000
  - array: 65000000670000006a000000dd000000df000000e2000000
  - array: 6b0000009b000000a0000000cc000000dc000000
  - array: 6e0000007400000075000000da000000e0000000e1000000
  - array: 710000007300000076000000e9000000eb000000ee000000
  - array: 77000000a7000000ac000000d8000000e8000000
  - array: 7800000084000000900000009c000000a8000000
  - array: 790000007b0000007e000000aa000000b0000000b1000000
  - array: 7a000000800000008100000085000000870000008a000000
  - array: 7d0000007f00000082000000b5000000b7000000ba000000
  - array: 860000008c0000008d000000910000009300000096000000
  - array: 890000008b0000008e000000c1000000c3000000c6000000
  - array: 9200000098000000990000009d0000009f000000a2000000
  - array: 95000000970000009a000000cd000000cf000000d2000000
  - array: 9e000000a4000000a5000000a9000000ab000000ae000000
  - array: a1000000a3000000a6000000d9000000db000000de000000
  - array: ad000000af000000b2000000e5000000e7000000ea000000
  _vertices:
  - {x: 0, y: 0, z: 0}
  - {x: -0.028328598, y: -0.03506508, z: 0.0309017}
  - {x: 0.021671407, y: -0.004163377, z: 0.05}
  - {x: -0.028328598, y: -0.03506508, z: 0.0309017}
  - {x: -0.032491975, y: -0.08506508, z: 0.052573107}
  - {x: 0.0025731064, y: -0.05416338, z: 0.080901705}
  - {x: -0.028328598, y: -0.03506508, z: 0.0309017}
  - {x: 0.0025731064, y: -0.05416338, z: 0.080901705}
  - {x: 0.021671407, y: -0.004163377, z: 0.05}
  - {x: 0.021671407, y: -0.004163377, z: 0.05}
  - {x: 0.0025731064, y: -0.05416338, z: 0.080901705}
  - {x: 0.052573107, y: -0.032491975, z: 0.08506508}
  - {x: 0, y: 0, z: 0}
  - {x: 0.021671407, y: -0.004163377, z: 0.05}
  - {x: 0.052573107, y: 0.01493492, z: 0}
  - {x: 0.021671407, y: -0.004163377, z: 0.05}
  - {x: 0.052573107, y: -0.032491975, z: 0.08506508}
  - {x: 0.08347481, y: -0.004163377, z: 0.05}
  - {x: 0.021671407, y: -0.004163377, z: 0.05}
  - {x: 0.08347481, y: -0.004163377, z: 0.05}
  - {x: 0.052573107, y: 0.01493492, z: 0}
  - {x: 0.052573107, y: 0.01493492, z: 0}
  - {x: 0.08347481, y: -0.004163377, z: 0.05}
  - {x: 0.105146214, y: 0, z: 0}
  - {x: 0, y: 0, z: 0}
  - {x: 0.052573107, y: 0.01493492, z: 0}
  - {x: 0.021671407, y: -0.004163377, z: -0.05}
  - {x: 0.052573107, y: 0.01493492, z: 0}
  - {x: 0.105146214, y: 0, z: 0}
  - {x: 0.08347481, y: -0.004163377, z: -0.05}
  - {x: 0.052573107, y: 0.01493492, z: 0}
  - {x: 0.08347481, y: -0.004163377, z: -0.05}
  - {x: 0.021671407, y: -0.004163377, z: -0.05}
  - {x: 0.021671407, y: -0.004163377, z: -0.05}
  - {x: 0.08347481, y: -0.004163377, z: -0.05}
  - {x: 0.06, y: -0.03999996, z: 0}
  - {x: 0, y: 0, z: 0}
  - {x: 0.021671407, y: -0.004163377, z: -0.05}
  - {x: -0.028328598, y: -0.03506508, z: -0.0309017}
  - {x: 0.021671407, y: -0.004163377, z: -0.05}
  - {x: 0.06, y: -0.03999996, z: 0}
  - {x: 0, y: -0.059999943, z: 0}
  - {x: 0.021671407, y: -0.004163377, z: -0.05}
  - {x: 0, y: -0.059999943, z: 0}
  - {x: -0.028328598, y: -0.03506508, z: -0.0309017}
  - {x: -0.028328598, y: -0.03506508, z: -0.0309017}
  - {x: 0, y: -0.059999943, z: 0}
  - {x: -0.032491975, y: -0.08506508, z: -0.052573107}
  - {x: 0, y: 0, z: 0}
  - {x: -0.028328598, y: -0.03506508, z: -0.0309017}
  - {x: -0.028328598, y: -0.03506508, z: 0.0309017}
  - {x: -0.028328598, y: -0.03506508, z: -0.0309017}
  - {x: -0.032491975, y: -0.08506508, z: -0.052573107}
  - {x: -0.047426894, y: -0.08506508, z: 0}
  - {x: -0.028328598, y: -0.03506508, z: -0.0309017}
  - {x: -0.047426894, y: -0.08506508, z: 0}
  - {x: -0.028328598, y: -0.03506508, z: 0.0309017}
  - {x: -0.028328598, y: -0.03506508, z: 0.0309017}
  - {x: -0.047426894, y: -0.08506508, z: 0}
  - {x: -0.032491975, y: -0.08506508, z: 0.052573107}
  - {x: 0.105146214, y: 0, z: 0}
  - {x: 0.08347481, y: -0.004163377, z: 0.05}
  - {x: 0.13347481, y: -0.03506508, z: 0.0309017}
  - {x: 0.08347481, y: -0.004163377, z: 0.05}
  - {x: 0.052573107, y: -0.032491975, z: 0.08506508}
  - {x: 0.10257311, y: -0.05416338, z: 0.080901705}
  - {x: 0.08347481, y: -0.004163377, z: 0.05}
  - {x: 0.10257311, y: -0.05416338, z: 0.080901705}
  - {x: 0.13347481, y: -0.03506508, z: 0.0309017}
  - {x: 0.13347481, y: -0.03506508, z: 0.0309017}
  - {x: 0.10257311, y: -0.05416338, z: 0.080901705}
  - {x: 0.13763818, y: -0.08506508, z: 0.052573107}
  - {x: 0.052573107, y: -0.032491975, z: 0.08506508}
  - {x: 0.0025731064, y: -0.05416338, z: 0.080901705}
  - {x: 0.052573107, y: -0.08506508, z: 0.1}
  - {x: 0.0025731064, y: -0.05416338, z: 0.080901705}
  - {x: -0.032491975, y: -0.08506508, z: 0.052573107}
  - {x: 0.0025731064, y: -0.11596678, z: 0.080901705}
  - {x: 0.0025731064, y: -0.05416338, z: 0.080901705}
  - {x: 0.0025731064, y: -0.11596678, z: 0.080901705}
  - {x: 0.052573107, y: -0.08506508, z: 0.1}
  - {x: 0.052573107, y: -0.08506508, z: 0.1}
  - {x: 0.0025731064, y: -0.11596678, z: 0.080901705}
  - {x: 0.052573107, y: -0.13763818, z: 0.08506508}
  - {x: -0.032491975, y: -0.08506508, z: 0.052573107}
  - {x: -0.047426894, y: -0.08506508, z: 0}
  - {x: -0.028328598, y: -0.13506508, z: 0.0309017}
  - {x: -0.047426894, y: -0.08506508, z: 0}
  - {x: -0.032491975, y: -0.08506508, z: -0.052573107}
  - {x: -0.028328598, y: -0.13506508, z: -0.0309017}
  - {x: -0.047426894, y: -0.08506508, z: 0}
  - {x: -0.028328598, y: -0.13506508, z: -0.0309017}
  - {x: -0.028328598, y: -0.13506508, z: 0.0309017}
  - {x: -0.028328598, y: -0.13506508, z: 0.0309017}
  - {x: -0.028328598, y: -0.13506508, z: -0.0309017}
  - {x: 0, y: -0.17013016, z: 0}
  - {x: -0.032491975, y: -0.08506508, z: -0.052573107}
  - {x: 0, y: -0.059999943, z: 0}
  - {x: 0, y: -0.120000005, z: 0}
  - {x: 0, y: -0.059999943, z: 0}
  - {x: 0.06, y: -0.03999996, z: 0}
  - {x: 0.06, y: -0.08000004, z: -0.02}
  - {x: 0, y: -0.059999943, z: 0}
  - {x: 0.06, y: -0.08000004, z: -0.02}
  - {x: 0, y: -0.120000005, z: 0}
  - {x: 0, y: -0.120000005, z: 0}
  - {x: 0.06, y: -0.08000004, z: -0.02}
  - {x: 0.06, y: -0.13999999, z: 0}
  - {x: 0.06, y: -0.03999996, z: 0}
  - {x: 0.08347481, y: -0.004163377, z: -0.05}
  - {x: 0.099999994, y: -0.059999943, z: 0}
  - {x: 0.08347481, y: -0.004163377, z: -0.05}
  - {x: 0.105146214, y: 0, z: 0}
  - {x: 0.13347481, y: -0.03506508, z: -0.0309017}
  - {x: 0.08347481, y: -0.004163377, z: -0.05}
  - {x: 0.13347481, y: -0.03506508, z: -0.0309017}
  - {x: 0.099999994, y: -0.059999943, z: 0}
  - {x: 0.099999994, y: -0.059999943, z: 0}
  - {x: 0.13347481, y: -0.03506508, z: -0.0309017}
  - {x: 0.13763818, y: -0.08506508, z: -0.052573107}
  - {x: 0.105146214, y: -0.17013016, z: 0}
  - {x: 0.13347481, y: -0.13506508, z: 0.0309017}
  - {x: 0.08347481, y: -0.16596678, z: 0.05}
  - {x: 0.13347481, y: -0.13506508, z: 0.0309017}
  - {x: 0.13763818, y: -0.08506508, z: 0.052573107}
  - {x: 0.10257311, y: -0.11596678, z: 0.080901705}
  - {x: 0.13347481, y: -0.13506508, z: 0.0309017}
  - {x: 0.10257311, y: -0.11596678, z: 0.080901705}
  - {x: 0.08347481, y: -0.16596678, z: 0.05}
  - {x: 0.08347481, y: -0.16596678, z: 0.05}
  - {x: 0.10257311, y: -0.11596678, z: 0.080901705}
  - {x: 0.052573107, y: -0.13763818, z: 0.08506508}
  - {x: 0.105146214, y: -0.17013016, z: 0}
  - {x: 0.08347481, y: -0.16596678, z: 0.05}
  - {x: 0.052573107, y: -0.18506509, z: 0}
  - {x: 0.08347481, y: -0.16596678, z: 0.05}
  - {x: 0.052573107, y: -0.13763818, z: 0.08506508}
  - {x: 0.021671407, y: -0.16596678, z: 0.05}
  - {x: 0.08347481, y: -0.16596678, z: 0.05}
  - {x: 0.021671407, y: -0.16596678, z: 0.05}
  - {x: 0.052573107, y: -0.18506509, z: 0}
  - {x: 0.052573107, y: -0.18506509, z: 0}
  - {x: 0.021671407, y: -0.16596678, z: 0.05}
  - {x: 0, y: -0.17013016, z: 0}
  - {x: 0.105146214, y: -0.17013016, z: 0}
  - {x: 0.052573107, y: -0.18506509, z: 0}
  - {x: 0.08347481, y: -0.16596678, z: -0.05}
  - {x: 0.052573107, y: -0.18506509, z: 0}
  - {x: 0, y: -0.17013016, z: 0}
  - {x: 0.021671407, y: -0.16596678, z: -0.05}
  - {x: 0.052573107, y: -0.18506509, z: 0}
  - {x: 0.021671407, y: -0.16596678, z: -0.05}
  - {x: 0.08347481, y: -0.16596678, z: -0.05}
  - {x: 0.08347481, y: -0.16596678, z: -0.05}
  - {x: 0.021671407, y: -0.16596678, z: -0.05}
  - {x: 0.06, y: -0.13999999, z: 0}
  - {x: 0.105146214, y: -0.17013016, z: 0}
  - {x: 0.08347481, y: -0.16596678, z: -0.05}
  - {x: 0.13347481, y: -0.13506508, z: -0.0309017}
  - {x: 0.08347481, y: -0.16596678, z: -0.05}
  - {x: 0.06, y: -0.13999999, z: 0}
  - {x: 0.099999994, y: -0.120000005, z: 0}
  - {x: 0.08347481, y: -0.16596678, z: -0.05}
  - {x: 0.099999994, y: -0.120000005, z: 0}
  - {x: 0.13347481, y: -0.13506508, z: -0.0309017}
  - {x: 0.13347481, y: -0.13506508, z: -0.0309017}
  - {x: 0.099999994, y: -0.120000005, z: 0}
  - {x: 0.13763818, y: -0.08506508, z: -0.052573107}
  - {x: 0.105146214, y: -0.17013016, z: 0}
  - {x: 0.13347481, y: -0.13506508, z: -0.0309017}
  - {x: 0.13347481, y: -0.13506508, z: 0.0309017}
  - {x: 0.13347481, y: -0.13506508, z: -0.0309017}
  - {x: 0.13763818, y: -0.08506508, z: -0.052573107}
  - {x: 0.15257311, y: -0.08506508, z: 0}
  - {x: 0.13347481, y: -0.13506508, z: -0.0309017}
  - {x: 0.15257311, y: -0.08506508, z: 0}
  - {x: 0.13347481, y: -0.13506508, z: 0.0309017}
  - {x: 0.13347481, y: -0.13506508, z: 0.0309017}
  - {x: 0.15257311, y: -0.08506508, z: 0}
  - {x: 0.13763818, y: -0.08506508, z: 0.052573107}
  - {x: 0.052573107, y: -0.13763818, z: 0.08506508}
  - {x: 0.10257311, y: -0.11596678, z: 0.080901705}
  - {x: 0.052573107, y: -0.08506508, z: 0.1}
  - {x: 0.10257311, y: -0.11596678, z: 0.080901705}
  - {x: 0.13763818, y: -0.08506508, z: 0.052573107}
  - {x: 0.10257311, y: -0.05416338, z: 0.080901705}
  - {x: 0.10257311, y: -0.11596678, z: 0.080901705}
  - {x: 0.10257311, y: -0.05416338, z: 0.080901705}
  - {x: 0.052573107, y: -0.08506508, z: 0.1}
  - {x: 0.052573107, y: -0.08506508, z: 0.1}
  - {x: 0.10257311, y: -0.05416338, z: 0.080901705}
  - {x: 0.052573107, y: -0.032491975, z: 0.08506508}
  - {x: 0, y: -0.17013016, z: 0}
  - {x: 0.021671407, y: -0.16596678, z: 0.05}
  - {x: -0.028328598, y: -0.13506508, z: 0.0309017}
  - {x: 0.021671407, y: -0.16596678, z: 0.05}
  - {x: 0.052573107, y: -0.13763818, z: 0.08506508}
  - {x: 0.0025731064, y: -0.11596678, z: 0.080901705}
  - {x: 0.021671407, y: -0.16596678, z: 0.05}
  - {x: 0.0025731064, y: -0.11596678, z: 0.080901705}
  - {x: -0.028328598, y: -0.13506508, z: 0.0309017}
  - {x: -0.028328598, y: -0.13506508, z: 0.0309017}
  - {x: 0.0025731064, y: -0.11596678, z: 0.080901705}
  - {x: -0.032491975, y: -0.08506508, z: 0.052573107}
  - {x: 0.06, y: -0.13999999, z: 0}
  - {x: 0.021671407, y: -0.16596678, z: -0.05}
  - {x: 0, y: -0.120000005, z: 0}
  - {x: 0.021671407, y: -0.16596678, z: -0.05}
  - {x: 0, y: -0.17013016, z: 0}
  - {x: -0.028328598, y: -0.13506508, z: -0.0309017}
  - {x: 0.021671407, y: -0.16596678, z: -0.05}
  - {x: -0.028328598, y: -0.13506508, z: -0.0309017}
  - {x: 0, y: -0.120000005, z: 0}
  - {x: 0, y: -0.120000005, z: 0}
  - {x: -0.028328598, y: -0.13506508, z: -0.0309017}
  - {x: -0.032491975, y: -0.08506508, z: -0.052573107}
  - {x: 0.13763818, y: -0.08506508, z: -0.052573107}
  - {x: 0.099999994, y: -0.120000005, z: 0}
  - {x: 0.099999994, y: -0.059999943, z: 0}
  - {x: 0.099999994, y: -0.120000005, z: 0}
  - {x: 0.06, y: -0.13999999, z: 0}
  - {x: 0.06, y: -0.08000004, z: -0.02}
  - {x: 0.099999994, y: -0.120000005, z: 0}
  - {x: 0.06, y: -0.08000004, z: -0.02}
  - {x: 0.099999994, y: -0.059999943, z: 0}
  - {x: 0.099999994, y: -0.059999943, z: 0}
  - {x: 0.06, y: -0.08000004, z: -0.02}
  - {x: 0.06, y: -0.03999996, z: 0}
  - {x: 0.13763818, y: -0.08506508, z: 0.052573107}
  - {x: 0.15257311, y: -0.08506508, z: 0}
  - {x: 0.13347481, y: -0.03506508, z: 0.0309017}
  - {x: 0.15257311, y: -0.08506508, z: 0}
  - {x: 0.13763818, y: -0.08506508, z: -0.052573107}
  - {x: 0.13347481, y: -0.03506508, z: -0.0309017}
  - {x: 0.15257311, y: -0.08506508, z: 0}
  - {x: 0.13347481, y: -0.03506508, z: -0.0309017}
  - {x: 0.13347481, y: -0.03506508, z: 0.0309017}
  - {x: 0.13347481, y: -0.03506508, z: 0.0309017}
  - {x: 0.13347481, y: -0.03506508, z: -0.0309017}
  - {x: 0.105146214, y: 0, z: 0}
  _uv:
  - {x: -0.052573107, y: 0}
  - {x: -0.080901705, y: 0.0309017}
  - {x: -0.0309017, y: 0.05}
  - {x: -0.0309017, y: 0.05}
  - {x: -0.052573107, y: 0}
  - {x: -0.080901705, y: 0.0309017}
  - {x: 0.080901705, y: 0.05}
  - {x: 0.05, y: 0.0309017}
  - {x: 0.0309017, y: 0.080901705}
  - {x: 0.0309017, y: 0.080901705}
  - {x: 0.05, y: 0.0309017}
  - {x: 0, y: 0.052573107}
  - {x: -0.052573107, y: 0}
  - {x: -0.0309017, y: 0.05}
  - {x: 0, y: 0}
  - {x: -0.0309017, y: 0.05}
  - {x: 0, y: 0.08506508}
  - {x: 0.0309017, y: 0.05}
  - {x: -0.0309017, y: 0.05}
  - {x: 0.0309017, y: 0.05}
  - {x: 0, y: 0}
  - {x: 0, y: 0}
  - {x: 0.0309017, y: 0.05}
  - {x: 0.052573107, y: 0}
  - {x: -0.052573107, y: 0}
  - {x: 0, y: 0}
  - {x: -0.0309017, y: -0.05}
  - {x: 0, y: 0}
  - {x: 0.052573107, y: 0}
  - {x: 0.0309017, y: -0.05}
  - {x: 0, y: 0}
  - {x: 0.0309017, y: -0.05}
  - {x: -0.0309017, y: -0.05}
  - {x: -0.0309017, y: -0.05}
  - {x: 0.0309017, y: -0.05}
  - {x: 0, y: -0.08506508}
  - {x: -0.052573107, y: 0}
  - {x: -0.0309017, y: -0.05}
  - {x: -0.080901705, y: -0.0309017}
  - {x: -0.0309017, y: 0.080901705}
  - {x: 0, y: 0.052573107}
  - {x: -0.05, y: 0.0309017}
  - {x: -0.0309017, y: 0.080901705}
  - {x: -0.05, y: 0.0309017}
  - {x: -0.080901705, y: 0.05}
  - {x: 0.0309017, y: 0.05}
  - {x: 0.080901705, y: 0.0309017}
  - {x: 0.052573107, y: 0}
  - {x: 0, y: 0.08506508}
  - {x: 0.0309017, y: 0.05}
  - {x: -0.0309017, y: 0.05}
  - {x: 0.0309017, y: 0.05}
  - {x: 0.052573107, y: 0}
  - {x: 0, y: 0}
  - {x: 0.0309017, y: 0.05}
  - {x: 0, y: 0}
  - {x: -0.0309017, y: 0.05}
  - {x: -0.0309017, y: 0.05}
  - {x: 0, y: 0}
  - {x: -0.052573107, y: 0}
  - {x: 0.052573107, y: 0}
  - {x: 0.0309017, y: 0.05}
  - {x: 0.080901705, y: 0.0309017}
  - {x: -0.0309017, y: 0.080901705}
  - {x: 0, y: 0.052573107}
  - {x: -0.05, y: 0.0309017}
  - {x: -0.0309017, y: 0.080901705}
  - {x: -0.05, y: 0.0309017}
  - {x: -0.080901705, y: 0.05}
  - {x: 0.0309017, y: 0.05}
  - {x: 0.080901705, y: 0.0309017}
  - {x: 0.052573107, y: 0}
  - {x: 0, y: 0.052573107}
  - {x: 0.05, y: 0.0309017}
  - {x: 0, y: 0}
  - {x: 0.05, y: 0.0309017}
  - {x: 0.08506508, y: 0}
  - {x: 0.05, y: -0.0309017}
  - {x: 0.05, y: 0.0309017}
  - {x: 0.05, y: -0.0309017}
  - {x: 0, y: 0}
  - {x: 0, y: 0}
  - {x: 0.05, y: -0.0309017}
  - {x: 0, y: -0.052573107}
  - {x: -0.052573107, y: 0}
  - {x: 0, y: 0}
  - {x: -0.0309017, y: -0.05}
  - {x: 0, y: 0}
  - {x: 0.052573107, y: 0}
  - {x: 0.0309017, y: -0.05}
  - {x: 0, y: 0}
  - {x: 0.0309017, y: -0.05}
  - {x: -0.0309017, y: -0.05}
  - {x: -0.0309017, y: -0.05}
  - {x: 0.0309017, y: -0.05}
  - {x: -0, y: -0.08506508}
  - {x: -0.08506508, y: 0}
  - {x: -0.05, y: 0.0309017}
  - {x: -0.05, y: -0.0309017}
  - {x: -0.05, y: 0.0309017}
  - {x: 0, y: 0.052573107}
  - {x: 0, y: 0}
  - {x: -0.05, y: 0.0309017}
  - {x: 0, y: 0}
  - {x: -0.05, y: -0.0309017}
  - {x: -0.05, y: -0.0309017}
  - {x: 0, y: 0}
  - {x: 0, y: -0.052573107}
  - {x: 0, y: 0.052573107}
  - {x: 0.0309017, y: 0.080901705}
  - {x: 0.05, y: 0.0309017}
  - {x: 0.0309017, y: -0.05}
  - {x: 0.052573107, y: 0}
  - {x: 0.080901705, y: -0.0309017}
  - {x: 0.0309017, y: 0.080901705}
  - {x: 0.080901705, y: 0.05}
  - {x: 0.05, y: 0.0309017}
  - {x: -0.080901705, y: 0.0309017}
  - {x: -0.0309017, y: 0.05}
  - {x: -0.052573107, y: 0}
  - {x: -0.052573107, y: 0}
  - {x: -0.080901705, y: 0.0309017}
  - {x: -0.0309017, y: 0.05}
  - {x: 0.0309017, y: -0.05}
  - {x: 0.052573107, y: 0}
  - {x: 0.080901705, y: -0.0309017}
  - {x: -0.080901705, y: -0.05}
  - {x: -0.05, y: -0.0309017}
  - {x: -0.0309017, y: -0.080901705}
  - {x: -0.0309017, y: -0.080901705}
  - {x: -0.05, y: -0.0309017}
  - {x: 0, y: -0.052573107}
  - {x: -0.052573107, y: 0}
  - {x: -0.0309017, y: 0.05}
  - {x: 0, y: 0}
  - {x: -0.0309017, y: 0.05}
  - {x: 0, y: 0.08506508}
  - {x: 0.0309017, y: 0.05}
  - {x: -0.0309017, y: 0.05}
  - {x: 0.0309017, y: 0.05}
  - {x: 0, y: 0}
  - {x: 0, y: 0}
  - {x: 0.0309017, y: 0.05}
  - {x: 0.052573107, y: 0}
  - {x: -0.052573107, y: 0}
  - {x: 0, y: 0}
  - {x: -0.0309017, y: -0.05}
  - {x: 0, y: 0}
  - {x: 0.052573107, y: 0}
  - {x: 0.0309017, y: -0.05}
  - {x: 0, y: 0}
  - {x: 0.0309017, y: -0.05}
  - {x: -0.0309017, y: -0.05}
  - {x: -0.0309017, y: -0.05}
  - {x: 0.0309017, y: -0.05}
  - {x: -0, y: -0.08506508}
  - {x: -0.052573107, y: 0}
  - {x: -0.0309017, y: -0.05}
  - {x: -0.080901705, y: -0.0309017}
  - {x: 0.0309017, y: -0.080901705}
  - {x: 0, y: -0.052573107}
  - {x: 0.05, y: -0.0309017}
  - {x: 0.0309017, y: -0.080901705}
  - {x: 0.05, y: -0.0309017}
  - {x: 0.080901705, y: -0.05}
  - {x: -0.0309017, y: -0.05}
  - {x: -0.080901705, y: -0.0309017}
  - {x: -0.052573107, y: 0}
  - {x: 0, y: -0.08506508}
  - {x: -0.0309017, y: -0.05}
  - {x: 0.0309017, y: -0.05}
  - {x: -0.0309017, y: -0.05}
  - {x: -0.052573107, y: 0}
  - {x: 0, y: 0}
  - {x: -0.0309017, y: -0.05}
  - {x: 0, y: 0}
  - {x: 0.0309017, y: -0.05}
  - {x: 0.0309017, y: -0.05}
  - {x: 0, y: 0}
  - {x: 0.052573107, y: 0}
  - {x: 0, y: -0.052573107}
  - {x: -0.05, y: -0.0309017}
  - {x: 0, y: 0}
  - {x: -0.05, y: -0.0309017}
  - {x: -0.08506508, y: 0}
  - {x: -0.05, y: 0.0309017}
  - {x: -0.05, y: -0.0309017}
  - {x: -0.05, y: 0.0309017}
  - {x: 0, y: 0}
  - {x: 0, y: 0}
  - {x: -0.05, y: 0.0309017}
  - {x: 0, y: 0.052573107}
  - {x: 0.052573107, y: 0}
  - {x: 0.0309017, y: 0.05}
  - {x: 0.080901705, y: 0.0309017}
  - {x: 0.0309017, y: -0.080901705}
  - {x: 0, y: -0.052573107}
  - {x: 0.05, y: -0.0309017}
  - {x: 0.0309017, y: -0.080901705}
  - {x: 0.05, y: -0.0309017}
  - {x: 0.080901705, y: -0.05}
  - {x: -0.0309017, y: -0.05}
  - {x: -0.080901705, y: -0.0309017}
  - {x: -0.052573107, y: 0}
  - {x: 0, y: -0.052573107}
  - {x: -0.0309017, y: -0.080901705}
  - {x: -0.05, y: -0.0309017}
  - {x: 0.0309017, y: -0.05}
  - {x: 0.052573107, y: 0}
  - {x: 0.080901705, y: -0.0309017}
  - {x: -0.0309017, y: -0.080901705}
  - {x: -0.080901705, y: -0.05}
  - {x: -0.05, y: -0.0309017}
  - {x: 0.080901705, y: -0.0309017}
  - {x: 0.0309017, y: -0.05}
  - {x: 0.052573107, y: 0}
  - {x: 0.08506508, y: 0}
  - {x: 0.05, y: -0.0309017}
  - {x: 0.05, y: 0.0309017}
  - {x: 0.05, y: -0.0309017}
  - {x: 0, y: -0.052573107}
  - {x: 0, y: 0}
  - {x: 0.05, y: -0.0309017}
  - {x: 0, y: 0}
  - {x: 0.05, y: 0.0309017}
  - {x: 0.05, y: 0.0309017}
  - {x: 0, y: 0}
  - {x: 0, y: 0.052573107}
  - {x: 0.052573107, y: 0}
  - {x: 0, y: 0}
  - {x: 0.0309017, y: 0.05}
  - {x: 0, y: 0}
  - {x: -0.052573107, y: 0}
  - {x: -0.0309017, y: 0.05}
  - {x: 0, y: 0}
  - {x: -0.0309017, y: 0.05}
  - {x: 0.0309017, y: 0.05}
  - {x: 0.0309017, y: 0.05}
  - {x: -0.0309017, y: 0.05}
  - {x: 0, y: 0.08506508}
  _uv3:
  - {x: 0, y: 0, z: 0, w: 0}
  - {x: 0, y: 0, z: 0, w: 0}
  - {x: 0, y: 0, z: 0, w: 0}
  - {x: 0, y: 0, z: 0, w: 0}
  - {x: 0, y: 0, z: 0, w: 0}
  - {x: 0, y: 0, z: 0, w: 0}
  - {x: 0, y: 0, z: 0, w: 0}
  - {x: 0, y: 0, z: 0, w: 0}
  - {x: 0, y: 0, z: 0, w: 0}
  - {x: 0, y: 0, z: 0, w: 0}
  - {x: 0, y: 0, z: 0, w: 0}
  - {x: 0, y: 0, z: 0, w: 0}
  - {x: 0, y: 0, z: 0, w: 0}
  - {x: 0, y: 0, z: 0, w: 0}
  - {x: 0, y: 0, z: 0, w: 0}
  - {x: 0, y: 0, z: 0, w: 0}
  - {x: 0, y: 0, z: 0, w: 0}
  - {x: 0, y: 0, z: 0, w: 0}
  - {x: 0, y: 0, z: 0, w: 0}
  - {x: 0, y: 0, z: 0, w: 0}
  - {x: 0, y: 0, z: 0, w: 0}
  - {x: 0, y: 0, z: 0, w: 0}
  - {x: 0, y: 0, z: 0, w: 0}
  - {x: 0, y: 0, z: 0, w: 0}
  - {x: 0, y: 0, z: 0, w: 0}
  - {x: 0, y: 0, z: 0, w: 0}
  - {x: 0, y: 0, z: 0, w: 0}
  - {x: 0, y: 0, z: 0, w: 0}
  - {x: 0, y: 0, z: 0, w: 0}
  - {x: 0, y: 0, z: 0, w: 0}
  - {x: 0, y: 0, z: 0, w: 0}
  - {x: 0, y: 0, z: 0, w: 0}
  - {x: 0, y: 0, z: 0, w: 0}
  - {x: 0, y: 0, z: 0, w: 0}
  - {x: 0, y: 0, z: 0, w: 0}
  - {x: 0, y: 0, z: 0, w: 0}
  - {x: 0, y: 0, z: 0, w: 0}
  - {x: 0, y: 0, z: 0, w: 0}
  - {x: 0, y: 0, z: 0, w: 0}
  - {x: 0, y: 0, z: 0, w: 0}
  - {x: 0, y: 0, z: 0, w: 0}
  - {x: 0, y: 0, z: 0, w: 0}
  - {x: 0, y: 0, z: 0, w: 0}
  - {x: 0, y: 0, z: 0, w: 0}
  - {x: 0, y: 0, z: 0, w: 0}
  - {x: 0, y: 0, z: 0, w: 0}
  - {x: 0, y: 0, z: 0, w: 0}
  - {x: 0, y: 0, z: 0, w: 0}
  - {x: 0, y: 0, z: 0, w: 0}
  - {x: 0, y: 0, z: 0, w: 0}
  - {x: 0, y: 0, z: 0, w: 0}
  - {x: 0, y: 0, z: 0, w: 0}
  - {x: 0, y: 0, z: 0, w: 0}
  - {x: 0, y: 0, z: 0, w: 0}
  - {x: 0, y: 0, z: 0, w: 0}
  - {x: 0, y: 0, z: 0, w: 0}
  - {x: 0, y: 0, z: 0, w: 0}
  - {x: 0, y: 0, z: 0, w: 0}
  - {x: 0, y: 0, z: 0, w: 0}
  - {x: 0, y: 0, z: 0, w: 0}
  - {x: 0, y: 0, z: 0, w: 0}
  - {x: 0, y: 0, z: 0, w: 0}
  - {x: 0, y: 0, z: 0, w: 0}
  - {x: 0, y: 0, z: 0, w: 0}
  - {x: 0, y: 0, z: 0, w: 0}
  - {x: 0, y: 0, z: 0, w: 0}
  - {x: 0, y: 0, z: 0, w: 0}
  - {x: 0, y: 0, z: 0, w: 0}
  - {x: 0, y: 0, z: 0, w: 0}
  - {x: 0, y: 0, z: 0, w: 0}
  - {x: 0, y: 0, z: 0, w: 0}
  - {x: 0, y: 0, z: 0, w: 0}
  - {x: 0, y: 0, z: 0, w: 0}
  - {x: 0, y: 0, z: 0, w: 0}
  - {x: 0, y: 0, z: 0, w: 0}
  - {x: 0, y: 0, z: 0, w: 0}
  - {x: 0, y: 0, z: 0, w: 0}
  - {x: 0, y: 0, z: 0, w: 0}
  - {x: 0, y: 0, z: 0, w: 0}
  - {x: 0, y: 0, z: 0, w: 0}
  - {x: 0, y: 0, z: 0, w: 0}
  - {x: 0, y: 0, z: 0, w: 0}
  - {x: 0, y: 0, z: 0, w: 0}
  - {x: 0, y: 0, z: 0, w: 0}
  - {x: 0, y: 0, z: 0, w: 0}
  - {x: 0, y: 0, z: 0, w: 0}
  - {x: 0, y: 0, z: 0, w: 0}
  - {x: 0, y: 0, z: 0, w: 0}
  - {x: 0, y: 0, z: 0, w: 0}
  - {x: 0, y: 0, z: 0, w: 0}
  - {x: 0, y: 0, z: 0, w: 0}
  - {x: 0, y: 0, z: 0, w: 0}
  - {x: 0, y: 0, z: 0, w: 0}
  - {x: 0, y: 0, z: 0, w: 0}
  - {x: 0, y: 0, z: 0, w: 0}
  - {x: 0, y: 0, z: 0, w: 0}
  - {x: 0, y: 0, z: 0, w: 0}
  - {x: 0, y: 0, z: 0, w: 0}
  - {x: 0, y: 0, z: 0, w: 0}
  - {x: 0, y: 0, z: 0, w: 0}
  - {x: 0, y: 0, z: 0, w: 0}
  - {x: 0, y: 0, z: 0, w: 0}
  - {x: 0, y: 0, z: 0, w: 0}
  - {x: 0, y: 0, z: 0, w: 0}
  - {x: 0, y: 0, z: 0, w: 0}
  - {x: 0, y: 0, z: 0, w: 0}
  - {x: 0, y: 0, z: 0, w: 0}
  - {x: 0, y: 0, z: 0, w: 0}
  - {x: 0, y: 0, z: 0, w: 0}
  - {x: 0, y: 0, z: 0, w: 0}
  - {x: 0, y: 0, z: 0, w: 0}
  - {x: 0, y: 0, z: 0, w: 0}
  - {x: 0, y: 0, z: 0, w: 0}
  - {x: 0, y: 0, z: 0, w: 0}
  - {x: 0, y: 0, z: 0, w: 0}
  - {x: 0, y: 0, z: 0, w: 0}
  - {x: 0, y: 0, z: 0, w: 0}
  - {x: 0, y: 0, z: 0, w: 0}
  - {x: 0, y: 0, z: 0, w: 0}
  - {x: 0, y: 0, z: 0, w: 0}
  - {x: 0, y: 0, z: 0, w: 0}
  - {x: 0, y: 0, z: 0, w: 0}
  - {x: 0, y: 0, z: 0, w: 0}
  - {x: 0, y: 0, z: 0, w: 0}
  - {x: 0, y: 0, z: 0, w: 0}
  - {x: 0, y: 0, z: 0, w: 0}
  - {x: 0, y: 0, z: 0, w: 0}
  - {x: 0, y: 0, z: 0, w: 0}
  - {x: 0, y: 0, z: 0, w: 0}
  - {x: 0, y: 0, z: 0, w: 0}
  - {x: 0, y: 0, z: 0, w: 0}
  - {x: 0, y: 0, z: 0, w: 0}
  - {x: 0, y: 0, z: 0, w: 0}
  - {x: 0, y: 0, z: 0, w: 0}
  - {x: 0, y: 0, z: 0, w: 0}
  - {x: 0, y: 0, z: 0, w: 0}
  - {x: 0, y: 0, z: 0, w: 0}
  - {x: 0, y: 0, z: 0, w: 0}
  - {x: 0, y: 0, z: 0, w: 0}
  - {x: 0, y: 0, z: 0, w: 0}
  - {x: 0, y: 0, z: 0, w: 0}
  - {x: 0, y: 0, z: 0, w: 0}
  - {x: 0, y: 0, z: 0, w: 0}
  - {x: 0, y: 0, z: 0, w: 0}
  - {x: 0, y: 0, z: 0, w: 0}
  - {x: 0, y: 0, z: 0, w: 0}
  - {x: 0, y: 0, z: 0, w: 0}
  - {x: 0, y: 0, z: 0, w: 0}
  - {x: 0, y: 0, z: 0, w: 0}
  - {x: 0, y: 0, z: 0, w: 0}
  - {x: 0, y: 0, z: 0, w: 0}
  - {x: 0, y: 0, z: 0, w: 0}
  - {x: 0, y: 0, z: 0, w: 0}
  - {x: 0, y: 0, z: 0, w: 0}
  - {x: 0, y: 0, z: 0, w: 0}
  - {x: 0, y: 0, z: 0, w: 0}
  - {x: 0, y: 0, z: 0, w: 0}
  - {x: 0, y: 0, z: 0, w: 0}
  - {x: 0, y: 0, z: 0, w: 0}
  - {x: 0, y: 0, z: 0, w: 0}
  - {x: 0, y: 0, z: 0, w: 0}
  - {x: 0, y: 0, z: 0, w: 0}
  - {x: 0, y: 0, z: 0, w: 0}
  - {x: 0, y: 0, z: 0, w: 0}
  - {x: 0, y: 0, z: 0, w: 0}
  - {x: 0, y: 0, z: 0, w: 0}
  - {x: 0, y: 0, z: 0, w: 0}
  - {x: 0, y: 0, z: 0, w: 0}
  - {x: 0, y: 0, z: 0, w: 0}
  - {x: 0, y: 0, z: 0, w: 0}
  - {x: 0, y: 0, z: 0, w: 0}
  - {x: 0, y: 0, z: 0, w: 0}
  - {x: 0, y: 0, z: 0, w: 0}
  - {x: 0, y: 0, z: 0, w: 0}
  - {x: 0, y: 0, z: 0, w: 0}
  - {x: 0, y: 0, z: 0, w: 0}
  - {x: 0, y: 0, z: 0, w: 0}
  - {x: 0, y: 0, z: 0, w: 0}
  - {x: 0, y: 0, z: 0, w: 0}
  - {x: 0, y: 0, z: 0, w: 0}
  - {x: 0, y: 0, z: 0, w: 0}
  - {x: 0, y: 0, z: 0, w: 0}
  - {x: 0, y: 0, z: 0, w: 0}
  - {x: 0, y: 0, z: 0, w: 0}
  - {x: 0, y: 0, z: 0, w: 0}
  - {x: 0, y: 0, z: 0, w: 0}
  - {x: 0, y: 0, z: 0, w: 0}
  - {x: 0, y: 0, z: 0, w: 0}
  - {x: 0, y: 0, z: 0, w: 0}
  - {x: 0, y: 0, z: 0, w: 0}
  - {x: 0, y: 0, z: 0, w: 0}
  - {x: 0, y: 0, z: 0, w: 0}
  - {x: 0, y: 0, z: 0, w: 0}
  - {x: 0, y: 0, z: 0, w: 0}
  - {x: 0, y: 0, z: 0, w: 0}
  - {x: 0, y: 0, z: 0, w: 0}
  - {x: 0, y: 0, z: 0, w: 0}
  - {x: 0, y: 0, z: 0, w: 0}
  - {x: 0, y: 0, z: 0, w: 0}
  - {x: 0, y: 0, z: 0, w: 0}
  - {x: 0, y: 0, z: 0, w: 0}
  - {x: 0, y: 0, z: 0, w: 0}
  - {x: 0, y: 0, z: 0, w: 0}
  - {x: 0, y: 0, z: 0, w: 0}
  - {x: 0, y: 0, z: 0, w: 0}
  - {x: 0, y: 0, z: 0, w: 0}
  - {x: 0, y: 0, z: 0, w: 0}
  - {x: 0, y: 0, z: 0, w: 0}
  - {x: 0, y: 0, z: 0, w: 0}
  - {x: 0, y: 0, z: 0, w: 0}
  - {x: 0, y: 0, z: 0, w: 0}
  - {x: 0, y: 0, z: 0, w: 0}
  - {x: 0, y: 0, z: 0, w: 0}
  - {x: 0, y: 0, z: 0, w: 0}
  - {x: 0, y: 0, z: 0, w: 0}
  - {x: 0, y: 0, z: 0, w: 0}
  - {x: 0, y: 0, z: 0, w: 0}
  - {x: 0, y: 0, z: 0, w: 0}
  - {x: 0, y: 0, z: 0, w: 0}
  - {x: 0, y: 0, z: 0, w: 0}
  - {x: 0, y: 0, z: 0, w: 0}
  - {x: 0, y: 0, z: 0, w: 0}
  - {x: 0, y: 0, z: 0, w: 0}
  - {x: 0, y: 0, z: 0, w: 0}
  - {x: 0, y: 0, z: 0, w: 0}
  - {x: 0, y: 0, z: 0, w: 0}
  - {x: 0, y: 0, z: 0, w: 0}
  - {x: 0, y: 0, z: 0, w: 0}
  - {x: 0, y: 0, z: 0, w: 0}
  - {x: 0, y: 0, z: 0, w: 0}
  - {x: 0, y: 0, z: 0, w: 0}
  - {x: 0, y: 0, z: 0, w: 0}
  - {x: 0, y: 0, z: 0, w: 0}
  - {x: 0, y: 0, z: 0, w: 0}
  - {x: 0, y: 0, z: 0, w: 0}
  - {x: 0, y: 0, z: 0, w: 0}
  - {x: 0, y: 0, z: 0, w: 0}
  - {x: 0, y: 0, z: 0, w: 0}
  - {x: 0, y: 0, z: 0, w: 0}
  - {x: 0, y: 0, z: 0, w: 0}
  _uv4:
  - {x: 0, y: 0, z: 0, w: 0}
  - {x: 0, y: 0, z: 0, w: 0}
  - {x: 0, y: 0, z: 0, w: 0}
  - {x: 0, y: 0, z: 0, w: 0}
  - {x: 0, y: 0, z: 0, w: 0}
  - {x: 0, y: 0, z: 0, w: 0}
  - {x: 0, y: 0, z: 0, w: 0}
  - {x: 0, y: 0, z: 0, w: 0}
  - {x: 0, y: 0, z: 0, w: 0}
  - {x: 0, y: 0, z: 0, w: 0}
  - {x: 0, y: 0, z: 0, w: 0}
  - {x: 0, y: 0, z: 0, w: 0}
  - {x: 0, y: 0, z: 0, w: 0}
  - {x: 0, y: 0, z: 0, w: 0}
  - {x: 0, y: 0, z: 0, w: 0}
  - {x: 0, y: 0, z: 0, w: 0}
  - {x: 0, y: 0, z: 0, w: 0}
  - {x: 0, y: 0, z: 0, w: 0}
  - {x: 0, y: 0, z: 0, w: 0}
  - {x: 0, y: 0, z: 0, w: 0}
  - {x: 0, y: 0, z: 0, w: 0}
  - {x: 0, y: 0, z: 0, w: 0}
  - {x: 0, y: 0, z: 0, w: 0}
  - {x: 0, y: 0, z: 0, w: 0}
  - {x: 0, y: 0, z: 0, w: 0}
  - {x: 0, y: 0, z: 0, w: 0}
  - {x: 0, y: 0, z: 0, w: 0}
  - {x: 0, y: 0, z: 0, w: 0}
  - {x: 0, y: 0, z: 0, w: 0}
  - {x: 0, y: 0, z: 0, w: 0}
  - {x: 0, y: 0, z: 0, w: 0}
  - {x: 0, y: 0, z: 0, w: 0}
  - {x: 0, y: 0, z: 0, w: 0}
  - {x: 0, y: 0, z: 0, w: 0}
  - {x: 0, y: 0, z: 0, w: 0}
  - {x: 0, y: 0, z: 0, w: 0}
  - {x: 0, y: 0, z: 0, w: 0}
  - {x: 0, y: 0, z: 0, w: 0}
  - {x: 0, y: 0, z: 0, w: 0}
  - {x: 0, y: 0, z: 0, w: 0}
  - {x: 0, y: 0, z: 0, w: 0}
  - {x: 0, y: 0, z: 0, w: 0}
  - {x: 0, y: 0, z: 0, w: 0}
  - {x: 0, y: 0, z: 0, w: 0}
  - {x: 0, y: 0, z: 0, w: 0}
  - {x: 0, y: 0, z: 0, w: 0}
  - {x: 0, y: 0, z: 0, w: 0}
  - {x: 0, y: 0, z: 0, w: 0}
  - {x: 0, y: 0, z: 0, w: 0}
  - {x: 0, y: 0, z: 0, w: 0}
  - {x: 0, y: 0, z: 0, w: 0}
  - {x: 0, y: 0, z: 0, w: 0}
  - {x: 0, y: 0, z: 0, w: 0}
  - {x: 0, y: 0, z: 0, w: 0}
  - {x: 0, y: 0, z: 0, w: 0}
  - {x: 0, y: 0, z: 0, w: 0}
  - {x: 0, y: 0, z: 0, w: 0}
  - {x: 0, y: 0, z: 0, w: 0}
  - {x: 0, y: 0, z: 0, w: 0}
  - {x: 0, y: 0, z: 0, w: 0}
  - {x: 0, y: 0, z: 0, w: 0}
  - {x: 0, y: 0, z: 0, w: 0}
  - {x: 0, y: 0, z: 0, w: 0}
  - {x: 0, y: 0, z: 0, w: 0}
  - {x: 0, y: 0, z: 0, w: 0}
  - {x: 0, y: 0, z: 0, w: 0}
  - {x: 0, y: 0, z: 0, w: 0}
  - {x: 0, y: 0, z: 0, w: 0}
  - {x: 0, y: 0, z: 0, w: 0}
  - {x: 0, y: 0, z: 0, w: 0}
  - {x: 0, y: 0, z: 0, w: 0}
  - {x: 0, y: 0, z: 0, w: 0}
  - {x: 0, y: 0, z: 0, w: 0}
  - {x: 0, y: 0, z: 0, w: 0}
  - {x: 0, y: 0, z: 0, w: 0}
  - {x: 0, y: 0, z: 0, w: 0}
  - {x: 0, y: 0, z: 0, w: 0}
  - {x: 0, y: 0, z: 0, w: 0}
  - {x: 0, y: 0, z: 0, w: 0}
  - {x: 0, y: 0, z: 0, w: 0}
  - {x: 0, y: 0, z: 0, w: 0}
  - {x: 0, y: 0, z: 0, w: 0}
  - {x: 0, y: 0, z: 0, w: 0}
  - {x: 0, y: 0, z: 0, w: 0}
  - {x: 0, y: 0, z: 0, w: 0}
  - {x: 0, y: 0, z: 0, w: 0}
  - {x: 0, y: 0, z: 0, w: 0}
  - {x: 0, y: 0, z: 0, w: 0}
  - {x: 0, y: 0, z: 0, w: 0}
  - {x: 0, y: 0, z: 0, w: 0}
  - {x: 0, y: 0, z: 0, w: 0}
  - {x: 0, y: 0, z: 0, w: 0}
  - {x: 0, y: 0, z: 0, w: 0}
  - {x: 0, y: 0, z: 0, w: 0}
  - {x: 0, y: 0, z: 0, w: 0}
  - {x: 0, y: 0, z: 0, w: 0}
  - {x: 0, y: 0, z: 0, w: 0}
  - {x: 0, y: 0, z: 0, w: 0}
  - {x: 0, y: 0, z: 0, w: 0}
  - {x: 0, y: 0, z: 0, w: 0}
  - {x: 0, y: 0, z: 0, w: 0}
  - {x: 0, y: 0, z: 0, w: 0}
  - {x: 0, y: 0, z: 0, w: 0}
  - {x: 0, y: 0, z: 0, w: 0}
  - {x: 0, y: 0, z: 0, w: 0}
  - {x: 0, y: 0, z: 0, w: 0}
  - {x: 0, y: 0, z: 0, w: 0}
  - {x: 0, y: 0, z: 0, w: 0}
  - {x: 0, y: 0, z: 0, w: 0}
  - {x: 0, y: 0, z: 0, w: 0}
  - {x: 0, y: 0, z: 0, w: 0}
  - {x: 0, y: 0, z: 0, w: 0}
  - {x: 0, y: 0, z: 0, w: 0}
  - {x: 0, y: 0, z: 0, w: 0}
  - {x: 0, y: 0, z: 0, w: 0}
  - {x: 0, y: 0, z: 0, w: 0}
  - {x: 0, y: 0, z: 0, w: 0}
  - {x: 0, y: 0, z: 0, w: 0}
  - {x: 0, y: 0, z: 0, w: 0}
  - {x: 0, y: 0, z: 0, w: 0}
  - {x: 0, y: 0, z: 0, w: 0}
  - {x: 0, y: 0, z: 0, w: 0}
  - {x: 0, y: 0, z: 0, w: 0}
  - {x: 0, y: 0, z: 0, w: 0}
  - {x: 0, y: 0, z: 0, w: 0}
  - {x: 0, y: 0, z: 0, w: 0}
  - {x: 0, y: 0, z: 0, w: 0}
  - {x: 0, y: 0, z: 0, w: 0}
  - {x: 0, y: 0, z: 0, w: 0}
  - {x: 0, y: 0, z: 0, w: 0}
  - {x: 0, y: 0, z: 0, w: 0}
  - {x: 0, y: 0, z: 0, w: 0}
  - {x: 0, y: 0, z: 0, w: 0}
  - {x: 0, y: 0, z: 0, w: 0}
  - {x: 0, y: 0, z: 0, w: 0}
  - {x: 0, y: 0, z: 0, w: 0}
  - {x: 0, y: 0, z: 0, w: 0}
  - {x: 0, y: 0, z: 0, w: 0}
  - {x: 0, y: 0, z: 0, w: 0}
  - {x: 0, y: 0, z: 0, w: 0}
  - {x: 0, y: 0, z: 0, w: 0}
  - {x: 0, y: 0, z: 0, w: 0}
  - {x: 0, y: 0, z: 0, w: 0}
  - {x: 0, y: 0, z: 0, w: 0}
  - {x: 0, y: 0, z: 0, w: 0}
  - {x: 0, y: 0, z: 0, w: 0}
  - {x: 0, y: 0, z: 0, w: 0}
  - {x: 0, y: 0, z: 0, w: 0}
  - {x: 0, y: 0, z: 0, w: 0}
  - {x: 0, y: 0, z: 0, w: 0}
  - {x: 0, y: 0, z: 0, w: 0}
  - {x: 0, y: 0, z: 0, w: 0}
  - {x: 0, y: 0, z: 0, w: 0}
  - {x: 0, y: 0, z: 0, w: 0}
  - {x: 0, y: 0, z: 0, w: 0}
  - {x: 0, y: 0, z: 0, w: 0}
  - {x: 0, y: 0, z: 0, w: 0}
  - {x: 0, y: 0, z: 0, w: 0}
  - {x: 0, y: 0, z: 0, w: 0}
  - {x: 0, y: 0, z: 0, w: 0}
  - {x: 0, y: 0, z: 0, w: 0}
  - {x: 0, y: 0, z: 0, w: 0}
  - {x: 0, y: 0, z: 0, w: 0}
  - {x: 0, y: 0, z: 0, w: 0}
  - {x: 0, y: 0, z: 0, w: 0}
  - {x: 0, y: 0, z: 0, w: 0}
  - {x: 0, y: 0, z: 0, w: 0}
  - {x: 0, y: 0, z: 0, w: 0}
  - {x: 0, y: 0, z: 0, w: 0}
  - {x: 0, y: 0, z: 0, w: 0}
  - {x: 0, y: 0, z: 0, w: 0}
  - {x: 0, y: 0, z: 0, w: 0}
  - {x: 0, y: 0, z: 0, w: 0}
  - {x: 0, y: 0, z: 0, w: 0}
  - {x: 0, y: 0, z: 0, w: 0}
  - {x: 0, y: 0, z: 0, w: 0}
  - {x: 0, y: 0, z: 0, w: 0}
  - {x: 0, y: 0, z: 0, w: 0}
  - {x: 0, y: 0, z: 0, w: 0}
  - {x: 0, y: 0, z: 0, w: 0}
  - {x: 0, y: 0, z: 0, w: 0}
  - {x: 0, y: 0, z: 0, w: 0}
  - {x: 0, y: 0, z: 0, w: 0}
  - {x: 0, y: 0, z: 0, w: 0}
  - {x: 0, y: 0, z: 0, w: 0}
  - {x: 0, y: 0, z: 0, w: 0}
  - {x: 0, y: 0, z: 0, w: 0}
  - {x: 0, y: 0, z: 0, w: 0}
  - {x: 0, y: 0, z: 0, w: 0}
  - {x: 0, y: 0, z: 0, w: 0}
  - {x: 0, y: 0, z: 0, w: 0}
  - {x: 0, y: 0, z: 0, w: 0}
  - {x: 0, y: 0, z: 0, w: 0}
  - {x: 0, y: 0, z: 0, w: 0}
  - {x: 0, y: 0, z: 0, w: 0}
  - {x: 0, y: 0, z: 0, w: 0}
  - {x: 0, y: 0, z: 0, w: 0}
  - {x: 0, y: 0, z: 0, w: 0}
  - {x: 0, y: 0, z: 0, w: 0}
  - {x: 0, y: 0, z: 0, w: 0}
  - {x: 0, y: 0, z: 0, w: 0}
  - {x: 0, y: 0, z: 0, w: 0}
  - {x: 0, y: 0, z: 0, w: 0}
  - {x: 0, y: 0, z: 0, w: 0}
  - {x: 0, y: 0, z: 0, w: 0}
  - {x: 0, y: 0, z: 0, w: 0}
  - {x: 0, y: 0, z: 0, w: 0}
  - {x: 0, y: 0, z: 0, w: 0}
  - {x: 0, y: 0, z: 0, w: 0}
  - {x: 0, y: 0, z: 0, w: 0}
  - {x: 0, y: 0, z: 0, w: 0}
  - {x: 0, y: 0, z: 0, w: 0}
  - {x: 0, y: 0, z: 0, w: 0}
  - {x: 0, y: 0, z: 0, w: 0}
  - {x: 0, y: 0, z: 0, w: 0}
  - {x: 0, y: 0, z: 0, w: 0}
  - {x: 0, y: 0, z: 0, w: 0}
  - {x: 0, y: 0, z: 0, w: 0}
  - {x: 0, y: 0, z: 0, w: 0}
  - {x: 0, y: 0, z: 0, w: 0}
  - {x: 0, y: 0, z: 0, w: 0}
  - {x: 0, y: 0, z: 0, w: 0}
  - {x: 0, y: 0, z: 0, w: 0}
  - {x: 0, y: 0, z: 0, w: 0}
  - {x: 0, y: 0, z: 0, w: 0}
  - {x: 0, y: 0, z: 0, w: 0}
  - {x: 0, y: 0, z: 0, w: 0}
  - {x: 0, y: 0, z: 0, w: 0}
  - {x: 0, y: 0, z: 0, w: 0}
  - {x: 0, y: 0, z: 0, w: 0}
  - {x: 0, y: 0, z: 0, w: 0}
  - {x: 0, y: 0, z: 0, w: 0}
  - {x: 0, y: 0, z: 0, w: 0}
  - {x: 0, y: 0, z: 0, w: 0}
  - {x: 0, y: 0, z: 0, w: 0}
  - {x: 0, y: 0, z: 0, w: 0}
  - {x: 0, y: 0, z: 0, w: 0}
  - {x: 0, y: 0, z: 0, w: 0}
  - {x: 0, y: 0, z: 0, w: 0}
  - {x: 0, y: 0, z: 0, w: 0}
  _tangents: []
  _sharedIndicesUV:
  - array: 00000000
  - array: 01000000
  - array: 02000000
  - array: 0c000000
  - array: 0d000000
  - array: 0e000000
  - array: 0f000000
  - array: 10000000
  - array: 11000000
  - array: 12000000
  - array: 13000000
  - array: 14000000
  - array: 15000000
  - array: 16000000
  - array: 17000000
  - array: 18000000
  - array: 19000000
  - array: 1a000000
  - array: 1b000000
  - array: 1c000000
  - array: 1d000000
  - array: 1e000000
  - array: 1f000000
  - array: 20000000
  - array: 21000000
  - array: 22000000
  - array: 23000000
  - array: 24000000
  - array: 25000000
  - array: 26000000
  - array: 3c000000
  - array: 3d000000
  - array: 3e000000
  - array: 6f000000
  - array: 70000000
  - array: 71000000
  - array: 03000000
  - array: 04000000
  - array: 05000000
  - array: 2d000000
  - array: 2e000000
  - array: 2f000000
  - array: 30000000
  - array: 31000000
  - array: 32000000
  - array: 33000000
  - array: 34000000
  - array: 35000000
  - array: 36000000
  - array: 37000000
  - array: 38000000
  - array: 39000000
  - array: 3a000000
  - array: 3b000000
  - array: 54000000
  - array: 55000000
  - array: 56000000
  - array: 57000000
  - array: 58000000
  - array: 59000000
  - array: 5a000000
  - array: 5b000000
  - array: 5c000000
  - array: 5d000000
  - array: 5e000000
  - array: 5f000000
  - array: c9000000
  - array: ca000000
  - array: cb000000
  - array: d5000000
  - array: d6000000
  - array: d7000000
  - array: 06000000
  - array: 07000000
  - array: 08000000
  - array: 09000000
  - array: 0a000000
  - array: 0b000000
  - array: 3f000000
  - array: 40000000
  - array: 41000000
  - array: 42000000
  - array: 43000000
  - array: 44000000
  - array: 48000000
  - array: 49000000
  - array: 4a000000
  - array: 4b000000
  - array: 4c000000
  - array: 4d000000
  - array: 4e000000
  - array: 4f000000
  - array: 50000000
  - array: 51000000
  - array: 52000000
  - array: 53000000
  - array: 7e000000
  - array: 7f000000
  - array: 80000000
  - array: 81000000
  - array: 82000000
  - array: 83000000
  - array: b4000000
  - array: b5000000
  - array: b6000000
  - array: b7000000
  - array: b8000000
  - array: b9000000
  - array: ba000000
  - array: bb000000
  - array: bc000000
  - array: bd000000
  - array: be000000
  - array: bf000000
  - array: c3000000
  - array: c4000000
  - array: c5000000
  - array: c6000000
  - array: c7000000
  - array: c8000000
  - array: 27000000
  - array: 28000000
  - array: 29000000
  - array: 2a000000
  - array: 2b000000
  - array: 2c000000
  - array: 60000000
  - array: 61000000
  - array: 62000000
  - array: 63000000
  - array: 64000000
  - array: 65000000
  - array: 66000000
  - array: 67000000
  - array: 68000000
  - array: 69000000
  - array: 6a000000
  - array: 6b000000
  - array: 6c000000
  - array: 6d000000
  - array: 6e000000
  - array: 72000000
  - array: 73000000
  - array: 74000000
  - array: 9f000000
  - array: a0000000
  - array: a1000000
  - array: a2000000
  - array: a3000000
  - array: a4000000
  - array: cc000000
  - array: cd000000
  - array: ce000000
  - array: d2000000
  - array: d3000000
  - array: d4000000
  - array: d8000000
  - array: d9000000
  - array: da000000
  - array: db000000
  - array: dc000000
  - array: dd000000
  - array: de000000
  - array: df000000
  - array: e0000000
  - array: e1000000
  - array: e2000000
  - array: e3000000
  - array: 45000000
  - array: 46000000
  - array: 47000000
  - array: 75000000
  - array: 76000000
  - array: 77000000
  - array: 7b000000
  - array: 7c000000
  - array: 7d000000
  - array: a5000000
  - array: a6000000
  - array: a7000000
  - array: a8000000
  - array: a9000000
  - array: aa000000
  - array: ab000000
  - array: ac000000
  - array: ad000000
  - array: ae000000
  - array: af000000
  - array: b0000000
  - array: b1000000
  - array: b2000000
  - array: b3000000
  - array: e4000000
  - array: e5000000
  - array: e6000000
  - array: e7000000
  - array: e8000000
  - array: e9000000
  - array: ea000000
  - array: eb000000
  - array: ec000000
  - array: ed000000
  - array: ee000000
  - array: ef000000
  - array: 78000000
  - array: 79000000
  - array: 7a000000
  - array: 84000000
  - array: 85000000
  - array: 86000000
  - array: 87000000
  - array: 88000000
  - array: 89000000
  - array: 8a000000
  - array: 8b000000
  - array: 8c000000
  - array: 8d000000
  - array: 8e000000
  - array: 8f000000
  - array: 90000000
  - array: 91000000
  - array: 92000000
  - array: 93000000
  - array: 94000000
  - array: 95000000
  - array: 96000000
  - array: 97000000
  - array: 98000000
  - array: 99000000
  - array: 9a000000
  - array: 9b000000
  - array: 9c000000
  - array: 9d000000
  - array: 9e000000
  - array: c0000000
  - array: c1000000
  - array: c2000000
  - array: cf000000
  - array: d0000000
  - array: d1000000
  _colors:
  - {r: 1, g: 1, b: 1, a: 1}
  - {r: 1, g: 1, b: 1, a: 1}
  - {r: 1, g: 1, b: 1, a: 1}
  - {r: 1, g: 1, b: 1, a: 1}
  - {r: 1, g: 1, b: 1, a: 1}
  - {r: 1, g: 1, b: 1, a: 1}
  - {r: 1, g: 1, b: 1, a: 1}
  - {r: 1, g: 1, b: 1, a: 1}
  - {r: 1, g: 1, b: 1, a: 1}
  - {r: 1, g: 1, b: 1, a: 1}
  - {r: 1, g: 1, b: 1, a: 1}
  - {r: 1, g: 1, b: 1, a: 1}
  - {r: 1, g: 1, b: 1, a: 1}
  - {r: 1, g: 1, b: 1, a: 1}
  - {r: 1, g: 1, b: 1, a: 1}
  - {r: 1, g: 1, b: 1, a: 1}
  - {r: 1, g: 1, b: 1, a: 1}
  - {r: 1, g: 1, b: 1, a: 1}
  - {r: 1, g: 1, b: 1, a: 1}
  - {r: 1, g: 1, b: 1, a: 1}
  - {r: 1, g: 1, b: 1, a: 1}
  - {r: 1, g: 1, b: 1, a: 1}
  - {r: 1, g: 1, b: 1, a: 1}
  - {r: 1, g: 1, b: 1, a: 1}
  - {r: 1, g: 1, b: 1, a: 1}
  - {r: 1, g: 1, b: 1, a: 1}
  - {r: 1, g: 1, b: 1, a: 1}
  - {r: 1, g: 1, b: 1, a: 1}
  - {r: 1, g: 1, b: 1, a: 1}
  - {r: 1, g: 1, b: 1, a: 1}
  - {r: 1, g: 1, b: 1, a: 1}
  - {r: 1, g: 1, b: 1, a: 1}
  - {r: 1, g: 1, b: 1, a: 1}
  - {r: 1, g: 1, b: 1, a: 1}
  - {r: 1, g: 1, b: 1, a: 1}
  - {r: 1, g: 1, b: 1, a: 1}
  - {r: 1, g: 1, b: 1, a: 1}
  - {r: 1, g: 1, b: 1, a: 1}
  - {r: 1, g: 1, b: 1, a: 1}
  - {r: 1, g: 1, b: 1, a: 1}
  - {r: 1, g: 1, b: 1, a: 1}
  - {r: 1, g: 1, b: 1, a: 1}
  - {r: 1, g: 1, b: 1, a: 1}
  - {r: 1, g: 1, b: 1, a: 1}
  - {r: 1, g: 1, b: 1, a: 1}
  - {r: 1, g: 1, b: 1, a: 1}
  - {r: 1, g: 1, b: 1, a: 1}
  - {r: 1, g: 1, b: 1, a: 1}
  - {r: 1, g: 1, b: 1, a: 1}
  - {r: 1, g: 1, b: 1, a: 1}
  - {r: 1, g: 1, b: 1, a: 1}
  - {r: 1, g: 1, b: 1, a: 1}
  - {r: 1, g: 1, b: 1, a: 1}
  - {r: 1, g: 1, b: 1, a: 1}
  - {r: 1, g: 1, b: 1, a: 1}
  - {r: 1, g: 1, b: 1, a: 1}
  - {r: 1, g: 1, b: 1, a: 1}
  - {r: 1, g: 1, b: 1, a: 1}
  - {r: 1, g: 1, b: 1, a: 1}
  - {r: 1, g: 1, b: 1, a: 1}
  - {r: 1, g: 1, b: 1, a: 1}
  - {r: 1, g: 1, b: 1, a: 1}
  - {r: 1, g: 1, b: 1, a: 1}
  - {r: 1, g: 1, b: 1, a: 1}
  - {r: 1, g: 1, b: 1, a: 1}
  - {r: 1, g: 1, b: 1, a: 1}
  - {r: 1, g: 1, b: 1, a: 1}
  - {r: 1, g: 1, b: 1, a: 1}
  - {r: 1, g: 1, b: 1, a: 1}
  - {r: 1, g: 1, b: 1, a: 1}
  - {r: 1, g: 1, b: 1, a: 1}
  - {r: 1, g: 1, b: 1, a: 1}
  - {r: 1, g: 1, b: 1, a: 1}
  - {r: 1, g: 1, b: 1, a: 1}
  - {r: 1, g: 1, b: 1, a: 1}
  - {r: 1, g: 1, b: 1, a: 1}
  - {r: 1, g: 1, b: 1, a: 1}
  - {r: 1, g: 1, b: 1, a: 1}
  - {r: 1, g: 1, b: 1, a: 1}
  - {r: 1, g: 1, b: 1, a: 1}
  - {r: 1, g: 1, b: 1, a: 1}
  - {r: 1, g: 1, b: 1, a: 1}
  - {r: 1, g: 1, b: 1, a: 1}
  - {r: 1, g: 1, b: 1, a: 1}
  - {r: 1, g: 1, b: 1, a: 1}
  - {r: 1, g: 1, b: 1, a: 1}
  - {r: 1, g: 1, b: 1, a: 1}
  - {r: 1, g: 1, b: 1, a: 1}
  - {r: 1, g: 1, b: 1, a: 1}
  - {r: 1, g: 1, b: 1, a: 1}
  - {r: 1, g: 1, b: 1, a: 1}
  - {r: 1, g: 1, b: 1, a: 1}
  - {r: 1, g: 1, b: 1, a: 1}
  - {r: 1, g: 1, b: 1, a: 1}
  - {r: 1, g: 1, b: 1, a: 1}
  - {r: 1, g: 1, b: 1, a: 1}
  - {r: 1, g: 1, b: 1, a: 1}
  - {r: 1, g: 1, b: 1, a: 1}
  - {r: 1, g: 1, b: 1, a: 1}
  - {r: 1, g: 1, b: 1, a: 1}
  - {r: 1, g: 1, b: 1, a: 1}
  - {r: 1, g: 1, b: 1, a: 1}
  - {r: 1, g: 1, b: 1, a: 1}
  - {r: 1, g: 1, b: 1, a: 1}
  - {r: 1, g: 1, b: 1, a: 1}
  - {r: 1, g: 1, b: 1, a: 1}
  - {r: 1, g: 1, b: 1, a: 1}
  - {r: 1, g: 1, b: 1, a: 1}
  - {r: 1, g: 1, b: 1, a: 1}
  - {r: 1, g: 1, b: 1, a: 1}
  - {r: 1, g: 1, b: 1, a: 1}
  - {r: 1, g: 1, b: 1, a: 1}
  - {r: 1, g: 1, b: 1, a: 1}
  - {r: 1, g: 1, b: 1, a: 1}
  - {r: 1, g: 1, b: 1, a: 1}
  - {r: 1, g: 1, b: 1, a: 1}
  - {r: 1, g: 1, b: 1, a: 1}
  - {r: 1, g: 1, b: 1, a: 1}
  - {r: 1, g: 1, b: 1, a: 1}
  - {r: 1, g: 1, b: 1, a: 1}
  - {r: 1, g: 1, b: 1, a: 1}
  - {r: 1, g: 1, b: 1, a: 1}
  - {r: 1, g: 1, b: 1, a: 1}
  - {r: 1, g: 1, b: 1, a: 1}
  - {r: 1, g: 1, b: 1, a: 1}
  - {r: 1, g: 1, b: 1, a: 1}
  - {r: 1, g: 1, b: 1, a: 1}
  - {r: 1, g: 1, b: 1, a: 1}
  - {r: 1, g: 1, b: 1, a: 1}
  - {r: 1, g: 1, b: 1, a: 1}
  - {r: 1, g: 1, b: 1, a: 1}
  - {r: 1, g: 1, b: 1, a: 1}
  - {r: 1, g: 1, b: 1, a: 1}
  - {r: 1, g: 1, b: 1, a: 1}
  - {r: 1, g: 1, b: 1, a: 1}
  - {r: 1, g: 1, b: 1, a: 1}
  - {r: 1, g: 1, b: 1, a: 1}
  - {r: 1, g: 1, b: 1, a: 1}
  - {r: 1, g: 1, b: 1, a: 1}
  - {r: 1, g: 1, b: 1, a: 1}
  - {r: 1, g: 1, b: 1, a: 1}
  - {r: 1, g: 1, b: 1, a: 1}
  - {r: 1, g: 1, b: 1, a: 1}
  - {r: 1, g: 1, b: 1, a: 1}
  - {r: 1, g: 1, b: 1, a: 1}
  - {r: 1, g: 1, b: 1, a: 1}
  - {r: 1, g: 1, b: 1, a: 1}
  - {r: 1, g: 1, b: 1, a: 1}
  - {r: 1, g: 1, b: 1, a: 1}
  - {r: 1, g: 1, b: 1, a: 1}
  - {r: 1, g: 1, b: 1, a: 1}
  - {r: 1, g: 1, b: 1, a: 1}
  - {r: 1, g: 1, b: 1, a: 1}
  - {r: 1, g: 1, b: 1, a: 1}
  - {r: 1, g: 1, b: 1, a: 1}
  - {r: 1, g: 1, b: 1, a: 1}
  - {r: 1, g: 1, b: 1, a: 1}
  - {r: 1, g: 1, b: 1, a: 1}
  - {r: 1, g: 1, b: 1, a: 1}
  - {r: 1, g: 1, b: 1, a: 1}
  - {r: 1, g: 1, b: 1, a: 1}
  - {r: 1, g: 1, b: 1, a: 1}
  - {r: 1, g: 1, b: 1, a: 1}
  - {r: 1, g: 1, b: 1, a: 1}
  - {r: 1, g: 1, b: 1, a: 1}
  - {r: 1, g: 1, b: 1, a: 1}
  - {r: 1, g: 1, b: 1, a: 1}
  - {r: 1, g: 1, b: 1, a: 1}
  - {r: 1, g: 1, b: 1, a: 1}
  - {r: 1, g: 1, b: 1, a: 1}
  - {r: 1, g: 1, b: 1, a: 1}
  - {r: 1, g: 1, b: 1, a: 1}
  - {r: 1, g: 1, b: 1, a: 1}
  - {r: 1, g: 1, b: 1, a: 1}
  - {r: 1, g: 1, b: 1, a: 1}
  - {r: 1, g: 1, b: 1, a: 1}
  - {r: 1, g: 1, b: 1, a: 1}
  - {r: 1, g: 1, b: 1, a: 1}
  - {r: 1, g: 1, b: 1, a: 1}
  - {r: 1, g: 1, b: 1, a: 1}
  - {r: 1, g: 1, b: 1, a: 1}
  - {r: 1, g: 1, b: 1, a: 1}
  - {r: 1, g: 1, b: 1, a: 1}
  - {r: 1, g: 1, b: 1, a: 1}
  - {r: 1, g: 1, b: 1, a: 1}
  - {r: 1, g: 1, b: 1, a: 1}
  - {r: 1, g: 1, b: 1, a: 1}
  - {r: 1, g: 1, b: 1, a: 1}
  - {r: 1, g: 1, b: 1, a: 1}
  - {r: 1, g: 1, b: 1, a: 1}
  - {r: 1, g: 1, b: 1, a: 1}
  - {r: 1, g: 1, b: 1, a: 1}
  - {r: 1, g: 1, b: 1, a: 1}
  - {r: 1, g: 1, b: 1, a: 1}
  - {r: 1, g: 1, b: 1, a: 1}
  - {r: 1, g: 1, b: 1, a: 1}
  - {r: 1, g: 1, b: 1, a: 1}
  - {r: 1, g: 1, b: 1, a: 1}
  - {r: 1, g: 1, b: 1, a: 1}
  - {r: 1, g: 1, b: 1, a: 1}
  - {r: 1, g: 1, b: 1, a: 1}
  - {r: 1, g: 1, b: 1, a: 1}
  - {r: 1, g: 1, b: 1, a: 1}
  - {r: 1, g: 1, b: 1, a: 1}
  - {r: 1, g: 1, b: 1, a: 1}
  - {r: 1, g: 1, b: 1, a: 1}
  - {r: 1, g: 1, b: 1, a: 1}
  - {r: 1, g: 1, b: 1, a: 1}
  - {r: 1, g: 1, b: 1, a: 1}
  - {r: 1, g: 1, b: 1, a: 1}
  - {r: 1, g: 1, b: 1, a: 1}
  - {r: 1, g: 1, b: 1, a: 1}
  - {r: 1, g: 1, b: 1, a: 1}
  - {r: 1, g: 1, b: 1, a: 1}
  - {r: 1, g: 1, b: 1, a: 1}
  - {r: 1, g: 1, b: 1, a: 1}
  - {r: 1, g: 1, b: 1, a: 1}
  - {r: 1, g: 1, b: 1, a: 1}
  - {r: 1, g: 1, b: 1, a: 1}
  - {r: 1, g: 1, b: 1, a: 1}
  - {r: 1, g: 1, b: 1, a: 1}
  - {r: 1, g: 1, b: 1, a: 1}
  - {r: 1, g: 1, b: 1, a: 1}
  - {r: 1, g: 1, b: 1, a: 1}
  - {r: 1, g: 1, b: 1, a: 1}
  - {r: 1, g: 1, b: 1, a: 1}
  - {r: 1, g: 1, b: 1, a: 1}
  - {r: 1, g: 1, b: 1, a: 1}
  - {r: 1, g: 1, b: 1, a: 1}
  - {r: 1, g: 1, b: 1, a: 1}
  - {r: 1, g: 1, b: 1, a: 1}
  - {r: 1, g: 1, b: 1, a: 1}
  - {r: 1, g: 1, b: 1, a: 1}
  - {r: 1, g: 1, b: 1, a: 1}
  - {r: 1, g: 1, b: 1, a: 1}
  - {r: 1, g: 1, b: 1, a: 1}
  - {r: 1, g: 1, b: 1, a: 1}
  - {r: 1, g: 1, b: 1, a: 1}
  - {r: 1, g: 1, b: 1, a: 1}
  - {r: 1, g: 1, b: 1, a: 1}
  userCollisions: 0
  isSelectable: 1
  unwrapParameters:
    hardAngle: 88
    packMargin: 4
    angleError: 8
    areaError: 15
  asset_guid: 
  dontDestroyMeshOnDelete: 0
  m_selectedFaces: 0000000021000000
  m_SelectedEdges:
  - x: 0
    y: 1
  - x: 1
    y: 2
  - x: 2
    y: 0
  - x: 99
    y: 100
  - x: 100
    y: 101
  - x: 101
    y: 99
  m_selectedTriangles: 000000000100000002000000630000006400000065000000
--- !u!136 &136903273138412722
CapsuleCollider:
  m_ObjectHideFlags: 1
  m_PrefabParentObject: {fileID: 0}
  m_PrefabInternal: {fileID: 100100000}
  m_GameObject: {fileID: 1134424092749314}
  m_Material: {fileID: 0}
  m_IsTrigger: 1
  m_Enabled: 1
  m_Radius: 0.1
  m_Height: 0.1
  m_Direction: 1
  m_Center: {x: 0, y: 0, z: 0}
